^C:\USERS\MICHEL\DESKTOP\POLY\INF2705\TP\INF2705-TP20221-TP2\TP2_H22\SRC\ETAT.CPP
/c /I"C:\USERS\MICHEL\DESKTOP\POLY\INF2705\TP\INF2705-TP20221-TP2\TP2_H22\SRC\PACKAGES\SDL2.2.0.5\BUILD\NATIVE\../..//BUILD/NATIVE/INCLUDE/" /I"C:\USERS\MICHEL\DESKTOP\POLY\INF2705\TP\INF2705-TP20221-TP2\TP2_H22\SRC\PACKAGES\GLM.0.9.9.800\BUILD\NATIVE\INCLUDE/" /I"C:\USERS\MICHEL\DESKTOP\POLY\INF2705\TP\INF2705-TP20221-TP2\TP2_H22\SRC\PACKAGES\GLEW-2.2.0.2.2.0.1\BUILD\NATIVE\INCLUDE" /I"C:\USERS\MICHEL\DESKTOP\POLY\INF2705\TP\INF2705-TP20221-TP2\TP2_H22\SRC\PACKAGES\NATIVE.FREEIMAGE.3.17.0\BUILD\NATIVE\../..//BUILD/NATIVE/INCLUDE/" /I"C:\USERS\MICHEL\VCPKG\SCRIPTS\BUILDSYSTEMS\MSBUILD\..\..\..\INSTALLED\X86-WINDOWS\INCLUDE" /ZI /JMC /nologo /W3 /WX- /diagnostics:column /sdl /Od /Oy- /D HAS_SDL2 /D HAS_GLM /D WIN32 /D _CRT_SECURE_NO_WARNINGS /D _DEBUG /D _CONSOLE /D _LIB /D _UNICODE /D UNICODE /Gm- /EHsc /RTC1 /MDd /GS /fp:precise /Zc:wchar_t /Zc:forScope /Zc:inline /std:c++17 /Fo"DEBUG\\" /Fd"DEBUG\VC142.PDB" /Gd /TP /analyze- /FC C:\USERS\MICHEL\DESKTOP\POLY\INF2705\TP\INF2705-TP20221-TP2\TP2_H22\SRC\ETAT.CPP
^C:\USERS\MICHEL\DESKTOP\POLY\INF2705\TP\INF2705-TP20221-TP2\TP2_H22\SRC\MAIN.CPP
/c /I"C:\USERS\MICHEL\DESKTOP\POLY\INF2705\TP\INF2705-TP20221-TP2\TP2_H22\SRC\PACKAGES\SDL2.2.0.5\BUILD\NATIVE\../..//BUILD/NATIVE/INCLUDE/" /I"C:\USERS\MICHEL\DESKTOP\POLY\INF2705\TP\INF2705-TP20221-TP2\TP2_H22\SRC\PACKAGES\GLM.0.9.9.800\BUILD\NATIVE\INCLUDE/" /I"C:\USERS\MICHEL\DESKTOP\POLY\INF2705\TP\INF2705-TP20221-TP2\TP2_H22\SRC\PACKAGES\GLEW-2.2.0.2.2.0.1\BUILD\NATIVE\INCLUDE" /I"C:\USERS\MICHEL\DESKTOP\POLY\INF2705\TP\INF2705-TP20221-TP2\TP2_H22\SRC\PACKAGES\NATIVE.FREEIMAGE.3.17.0\BUILD\NATIVE\../..//BUILD/NATIVE/INCLUDE/" /I"C:\USERS\MICHEL\VCPKG\SCRIPTS\BUILDSYSTEMS\MSBUILD\..\..\..\INSTALLED\X86-WINDOWS\INCLUDE" /ZI /JMC /nologo /W3 /WX- /diagnostics:column /sdl /Od /Oy- /D HAS_SDL2 /D HAS_GLM /D WIN32 /D _CRT_SECURE_NO_WARNINGS /D _DEBUG /D _CONSOLE /D _LIB /D _UNICODE /D UNICODE /Gm- /EHsc /RTC1 /MDd /GS /fp:precise /Zc:wchar_t /Zc:forScope /Zc:inline /std:c++17 /Fo"DEBUG\\" /Fd"DEBUG\VC142.PDB" /Gd /TP /analyze- /FC C:\USERS\MICHEL\DESKTOP\POLY\INF2705\TP\INF2705-TP20221-TP2\TP2_H22\SRC\MAIN.CPP
