^C:\USERS\MICHEL\DESKTOP\POLY\INF2705\TP\INF2705-TP20221-TP2\TP2_H22\SRC\ETAT.CPP
C:\USERS\MICHEL\DESKTOP\POLY\INF2705\TP\INF2705-TP20221-TP2\TP2_H22\SRC\ETAT.H
C:\USERS\MICHEL\DESKTOP\POLY\INF2705\TP\INF2705-TP20221-TP2\TP2_H22\SRC\PACKAGES\GLEW-2.2.0.2.2.0.1\BUILD\NATIVE\INCLUDE\GL\GLEW.H
C:\PROGRAM FILES (X86)\WINDOWS KITS\10\INCLUDE\10.0.18362.0\UM\GL\GLU.H
C:\PROGRAM FILES (X86)\WINDOWS KITS\10\INCLUDE\10.0.18362.0\SHARED\WINAPIFAMILY.H
C:\PROGRAM FILES (X86)\WINDOWS KITS\10\INCLUDE\10.0.18362.0\SHARED\WINPACKAGEFAMILY.H
C:\PROGRAM FILES (X86)\WINDOWS KITS\10\INCLUDE\10.0.18362.0\UM\GL\GL.H
C:\USERS\MICHEL\DESKTOP\POLY\INF2705\TP\INF2705-TP20221-TP2\TP2_H22\SRC\PACKAGES\GLM.0.9.9.800\BUILD\NATIVE\INCLUDE\GLM\GLM.HPP
C:\USERS\MICHEL\DESKTOP\POLY\INF2705\TP\INF2705-TP20221-TP2\TP2_H22\SRC\PACKAGES\GLM.0.9.9.800\BUILD\NATIVE\INCLUDE\GLM\DETAIL\_FIXES.HPP
C:\PROGRAM FILES (X86)\MICROSOFT VISUAL STUDIO\2019\ENTERPRISE\VC\TOOLS\MSVC\14.28.29333\INCLUDE\CMATH
C:\PROGRAM FILES (X86)\MICROSOFT VISUAL STUDIO\2019\ENTERPRISE\VC\TOOLS\MSVC\14.28.29333\INCLUDE\YVALS.H
C:\PROGRAM FILES (X86)\MICROSOFT VISUAL STUDIO\2019\ENTERPRISE\VC\TOOLS\MSVC\14.28.29333\INCLUDE\YVALS_CORE.H
C:\PROGRAM FILES (X86)\MICROSOFT VISUAL STUDIO\2019\ENTERPRISE\VC\TOOLS\MSVC\14.28.29333\INCLUDE\VCRUNTIME.H
C:\PROGRAM FILES (X86)\MICROSOFT VISUAL STUDIO\2019\ENTERPRISE\VC\TOOLS\MSVC\14.28.29333\INCLUDE\SAL.H
C:\PROGRAM FILES (X86)\MICROSOFT VISUAL STUDIO\2019\ENTERPRISE\VC\TOOLS\MSVC\14.28.29333\INCLUDE\CONCURRENCYSAL.H
C:\PROGRAM FILES (X86)\MICROSOFT VISUAL STUDIO\2019\ENTERPRISE\VC\TOOLS\MSVC\14.28.29333\INCLUDE\VADEFS.H
C:\PROGRAM FILES (X86)\MICROSOFT VISUAL STUDIO\2019\ENTERPRISE\VC\TOOLS\MSVC\14.28.29333\INCLUDE\XKEYCHECK.H
C:\PROGRAM FILES (X86)\WINDOWS KITS\10\INCLUDE\10.0.18362.0\UCRT\CRTDBG.H
C:\PROGRAM FILES (X86)\WINDOWS KITS\10\INCLUDE\10.0.18362.0\UCRT\CORECRT.H
C:\PROGRAM FILES (X86)\MICROSOFT VISUAL STUDIO\2019\ENTERPRISE\VC\TOOLS\MSVC\14.28.29333\INCLUDE\VCRUNTIME_NEW_DEBUG.H
C:\PROGRAM FILES (X86)\MICROSOFT VISUAL STUDIO\2019\ENTERPRISE\VC\TOOLS\MSVC\14.28.29333\INCLUDE\VCRUNTIME_NEW.H
C:\PROGRAM FILES (X86)\MICROSOFT VISUAL STUDIO\2019\ENTERPRISE\VC\TOOLS\MSVC\14.28.29333\INCLUDE\CRTDEFS.H
C:\PROGRAM FILES (X86)\MICROSOFT VISUAL STUDIO\2019\ENTERPRISE\VC\TOOLS\MSVC\14.28.29333\INCLUDE\USE_ANSI.H
C:\PROGRAM FILES (X86)\MICROSOFT VISUAL STUDIO\2019\ENTERPRISE\VC\TOOLS\MSVC\14.28.29333\INCLUDE\CSTDLIB
C:\PROGRAM FILES (X86)\WINDOWS KITS\10\INCLUDE\10.0.18362.0\UCRT\MATH.H
C:\PROGRAM FILES (X86)\WINDOWS KITS\10\INCLUDE\10.0.18362.0\UCRT\CORECRT_MATH.H
C:\PROGRAM FILES (X86)\WINDOWS KITS\10\INCLUDE\10.0.18362.0\UCRT\STDLIB.H
C:\PROGRAM FILES (X86)\WINDOWS KITS\10\INCLUDE\10.0.18362.0\UCRT\CORECRT_MALLOC.H
C:\PROGRAM FILES (X86)\WINDOWS KITS\10\INCLUDE\10.0.18362.0\UCRT\CORECRT_SEARCH.H
C:\PROGRAM FILES (X86)\WINDOWS KITS\10\INCLUDE\10.0.18362.0\UCRT\STDDEF.H
C:\PROGRAM FILES (X86)\WINDOWS KITS\10\INCLUDE\10.0.18362.0\UCRT\CORECRT_WSTDLIB.H
C:\PROGRAM FILES (X86)\MICROSOFT VISUAL STUDIO\2019\ENTERPRISE\VC\TOOLS\MSVC\14.28.29333\INCLUDE\LIMITS.H
C:\PROGRAM FILES (X86)\MICROSOFT VISUAL STUDIO\2019\ENTERPRISE\VC\TOOLS\MSVC\14.28.29333\INCLUDE\XTR1COMMON
C:\USERS\MICHEL\DESKTOP\POLY\INF2705\TP\INF2705-TP20221-TP2\TP2_H22\SRC\PACKAGES\GLM.0.9.9.800\BUILD\NATIVE\INCLUDE\GLM\DETAIL\SETUP.HPP
C:\PROGRAM FILES (X86)\MICROSOFT VISUAL STUDIO\2019\ENTERPRISE\VC\TOOLS\MSVC\14.28.29333\INCLUDE\CASSERT
C:\PROGRAM FILES (X86)\WINDOWS KITS\10\INCLUDE\10.0.18362.0\UCRT\ASSERT.H
C:\PROGRAM FILES (X86)\MICROSOFT VISUAL STUDIO\2019\ENTERPRISE\VC\TOOLS\MSVC\14.28.29333\INCLUDE\CSTDDEF
C:\USERS\MICHEL\DESKTOP\POLY\INF2705\TP\INF2705-TP20221-TP2\TP2_H22\SRC\PACKAGES\GLM.0.9.9.800\BUILD\NATIVE\INCLUDE\GLM\SIMD\PLATFORM.H
C:\PROGRAM FILES (X86)\MICROSOFT VISUAL STUDIO\2019\ENTERPRISE\VC\TOOLS\MSVC\14.28.29333\INCLUDE\CSTDINT
C:\PROGRAM FILES (X86)\MICROSOFT VISUAL STUDIO\2019\ENTERPRISE\VC\TOOLS\MSVC\14.28.29333\INCLUDE\STDINT.H
C:\PROGRAM FILES (X86)\MICROSOFT VISUAL STUDIO\2019\ENTERPRISE\VC\TOOLS\MSVC\14.28.29333\INCLUDE\TYPE_TRAITS
C:\PROGRAM FILES (X86)\MICROSOFT VISUAL STUDIO\2019\ENTERPRISE\VC\TOOLS\MSVC\14.28.29333\INCLUDE\XSTDDEF
C:\PROGRAM FILES (X86)\MICROSOFT VISUAL STUDIO\2019\ENTERPRISE\VC\TOOLS\MSVC\14.28.29333\INCLUDE\INITIALIZER_LIST
C:\PROGRAM FILES (X86)\MICROSOFT VISUAL STUDIO\2019\ENTERPRISE\VC\TOOLS\MSVC\14.28.29333\INCLUDE\CLIMITS
C:\PROGRAM FILES (X86)\MICROSOFT VISUAL STUDIO\2019\ENTERPRISE\VC\TOOLS\MSVC\14.28.29333\INCLUDE\CFLOAT
C:\PROGRAM FILES (X86)\WINDOWS KITS\10\INCLUDE\10.0.18362.0\UCRT\FLOAT.H
C:\PROGRAM FILES (X86)\MICROSOFT VISUAL STUDIO\2019\ENTERPRISE\VC\TOOLS\MSVC\14.28.29333\INCLUDE\LIMITS
C:\PROGRAM FILES (X86)\MICROSOFT VISUAL STUDIO\2019\ENTERPRISE\VC\TOOLS\MSVC\14.28.29333\INCLUDE\CWCHAR
C:\PROGRAM FILES (X86)\MICROSOFT VISUAL STUDIO\2019\ENTERPRISE\VC\TOOLS\MSVC\14.28.29333\INCLUDE\CSTDIO
C:\PROGRAM FILES (X86)\WINDOWS KITS\10\INCLUDE\10.0.18362.0\UCRT\STDIO.H
C:\PROGRAM FILES (X86)\WINDOWS KITS\10\INCLUDE\10.0.18362.0\UCRT\CORECRT_WSTDIO.H
C:\PROGRAM FILES (X86)\WINDOWS KITS\10\INCLUDE\10.0.18362.0\UCRT\CORECRT_STDIO_CONFIG.H
C:\PROGRAM FILES (X86)\WINDOWS KITS\10\INCLUDE\10.0.18362.0\UCRT\WCHAR.H
C:\PROGRAM FILES (X86)\WINDOWS KITS\10\INCLUDE\10.0.18362.0\UCRT\CORECRT_MEMCPY_S.H
C:\PROGRAM FILES (X86)\WINDOWS KITS\10\INCLUDE\10.0.18362.0\UCRT\ERRNO.H
C:\PROGRAM FILES (X86)\MICROSOFT VISUAL STUDIO\2019\ENTERPRISE\VC\TOOLS\MSVC\14.28.29333\INCLUDE\VCRUNTIME_STRING.H
C:\PROGRAM FILES (X86)\WINDOWS KITS\10\INCLUDE\10.0.18362.0\UCRT\CORECRT_WCONIO.H
C:\PROGRAM FILES (X86)\WINDOWS KITS\10\INCLUDE\10.0.18362.0\UCRT\CORECRT_WCTYPE.H
C:\PROGRAM FILES (X86)\WINDOWS KITS\10\INCLUDE\10.0.18362.0\UCRT\CORECRT_WDIRECT.H
C:\PROGRAM FILES (X86)\WINDOWS KITS\10\INCLUDE\10.0.18362.0\UCRT\CORECRT_WIO.H
C:\PROGRAM FILES (X86)\WINDOWS KITS\10\INCLUDE\10.0.18362.0\UCRT\CORECRT_SHARE.H
C:\PROGRAM FILES (X86)\WINDOWS KITS\10\INCLUDE\10.0.18362.0\UCRT\CORECRT_WPROCESS.H
C:\PROGRAM FILES (X86)\WINDOWS KITS\10\INCLUDE\10.0.18362.0\UCRT\CORECRT_WSTRING.H
C:\PROGRAM FILES (X86)\WINDOWS KITS\10\INCLUDE\10.0.18362.0\UCRT\CORECRT_WTIME.H
C:\PROGRAM FILES (X86)\WINDOWS KITS\10\INCLUDE\10.0.18362.0\UCRT\SYS\STAT.H
C:\PROGRAM FILES (X86)\WINDOWS KITS\10\INCLUDE\10.0.18362.0\UCRT\SYS\TYPES.H
C:\PROGRAM FILES (X86)\MICROSOFT VISUAL STUDIO\2019\ENTERPRISE\VC\TOOLS\MSVC\14.28.29333\INCLUDE\INTRIN0.H
C:\PROGRAM FILES (X86)\MICROSOFT VISUAL STUDIO\2019\ENTERPRISE\VC\TOOLS\MSVC\14.28.29333\INCLUDE\ISA_AVAILABILITY.H
C:\USERS\MICHEL\DESKTOP\POLY\INF2705\TP\INF2705-TP20221-TP2\TP2_H22\SRC\PACKAGES\GLM.0.9.9.800\BUILD\NATIVE\INCLUDE\GLM\FWD.HPP
C:\USERS\MICHEL\DESKTOP\POLY\INF2705\TP\INF2705-TP20221-TP2\TP2_H22\SRC\PACKAGES\GLM.0.9.9.800\BUILD\NATIVE\INCLUDE\GLM\DETAIL\QUALIFIER.HPP
C:\USERS\MICHEL\DESKTOP\POLY\INF2705\TP\INF2705-TP20221-TP2\TP2_H22\SRC\PACKAGES\GLM.0.9.9.800\BUILD\NATIVE\INCLUDE\GLM\VEC2.HPP
C:\USERS\MICHEL\DESKTOP\POLY\INF2705\TP\INF2705-TP20221-TP2\TP2_H22\SRC\PACKAGES\GLM.0.9.9.800\BUILD\NATIVE\INCLUDE\GLM\EXT\VECTOR_BOOL2.HPP
C:\USERS\MICHEL\DESKTOP\POLY\INF2705\TP\INF2705-TP20221-TP2\TP2_H22\SRC\PACKAGES\GLM.0.9.9.800\BUILD\NATIVE\INCLUDE\GLM\DETAIL\TYPE_VEC2.HPP
C:\USERS\MICHEL\DESKTOP\POLY\INF2705\TP\INF2705-TP20221-TP2\TP2_H22\SRC\PACKAGES\GLM.0.9.9.800\BUILD\NATIVE\INCLUDE\GLM\DETAIL\TYPE_VEC2.INL
C:\USERS\MICHEL\DESKTOP\POLY\INF2705\TP\INF2705-TP20221-TP2\TP2_H22\SRC\PACKAGES\GLM.0.9.9.800\BUILD\NATIVE\INCLUDE\GLM\DETAIL\COMPUTE_VECTOR_RELATIONAL.HPP
C:\USERS\MICHEL\DESKTOP\POLY\INF2705\TP\INF2705-TP20221-TP2\TP2_H22\SRC\PACKAGES\GLM.0.9.9.800\BUILD\NATIVE\INCLUDE\GLM\EXT\VECTOR_BOOL2_PRECISION.HPP
C:\USERS\MICHEL\DESKTOP\POLY\INF2705\TP\INF2705-TP20221-TP2\TP2_H22\SRC\PACKAGES\GLM.0.9.9.800\BUILD\NATIVE\INCLUDE\GLM\EXT\VECTOR_FLOAT2.HPP
C:\USERS\MICHEL\DESKTOP\POLY\INF2705\TP\INF2705-TP20221-TP2\TP2_H22\SRC\PACKAGES\GLM.0.9.9.800\BUILD\NATIVE\INCLUDE\GLM\EXT\VECTOR_FLOAT2_PRECISION.HPP
C:\USERS\MICHEL\DESKTOP\POLY\INF2705\TP\INF2705-TP20221-TP2\TP2_H22\SRC\PACKAGES\GLM.0.9.9.800\BUILD\NATIVE\INCLUDE\GLM\EXT\VECTOR_DOUBLE2.HPP
C:\USERS\MICHEL\DESKTOP\POLY\INF2705\TP\INF2705-TP20221-TP2\TP2_H22\SRC\PACKAGES\GLM.0.9.9.800\BUILD\NATIVE\INCLUDE\GLM\EXT\VECTOR_DOUBLE2_PRECISION.HPP
C:\USERS\MICHEL\DESKTOP\POLY\INF2705\TP\INF2705-TP20221-TP2\TP2_H22\SRC\PACKAGES\GLM.0.9.9.800\BUILD\NATIVE\INCLUDE\GLM\EXT\VECTOR_INT2.HPP
C:\USERS\MICHEL\DESKTOP\POLY\INF2705\TP\INF2705-TP20221-TP2\TP2_H22\SRC\PACKAGES\GLM.0.9.9.800\BUILD\NATIVE\INCLUDE\GLM\EXT\VECTOR_INT2_SIZED.HPP
C:\USERS\MICHEL\DESKTOP\POLY\INF2705\TP\INF2705-TP20221-TP2\TP2_H22\SRC\PACKAGES\GLM.0.9.9.800\BUILD\NATIVE\INCLUDE\GLM\EXT\SCALAR_INT_SIZED.HPP
C:\USERS\MICHEL\DESKTOP\POLY\INF2705\TP\INF2705-TP20221-TP2\TP2_H22\SRC\PACKAGES\GLM.0.9.9.800\BUILD\NATIVE\INCLUDE\GLM\EXT\VECTOR_UINT2.HPP
C:\USERS\MICHEL\DESKTOP\POLY\INF2705\TP\INF2705-TP20221-TP2\TP2_H22\SRC\PACKAGES\GLM.0.9.9.800\BUILD\NATIVE\INCLUDE\GLM\EXT\VECTOR_UINT2_SIZED.HPP
C:\USERS\MICHEL\DESKTOP\POLY\INF2705\TP\INF2705-TP20221-TP2\TP2_H22\SRC\PACKAGES\GLM.0.9.9.800\BUILD\NATIVE\INCLUDE\GLM\EXT\SCALAR_UINT_SIZED.HPP
C:\USERS\MICHEL\DESKTOP\POLY\INF2705\TP\INF2705-TP20221-TP2\TP2_H22\SRC\PACKAGES\GLM.0.9.9.800\BUILD\NATIVE\INCLUDE\GLM\VEC3.HPP
C:\USERS\MICHEL\DESKTOP\POLY\INF2705\TP\INF2705-TP20221-TP2\TP2_H22\SRC\PACKAGES\GLM.0.9.9.800\BUILD\NATIVE\INCLUDE\GLM\EXT\VECTOR_BOOL3.HPP
C:\USERS\MICHEL\DESKTOP\POLY\INF2705\TP\INF2705-TP20221-TP2\TP2_H22\SRC\PACKAGES\GLM.0.9.9.800\BUILD\NATIVE\INCLUDE\GLM\DETAIL\TYPE_VEC3.HPP
C:\USERS\MICHEL\DESKTOP\POLY\INF2705\TP\INF2705-TP20221-TP2\TP2_H22\SRC\PACKAGES\GLM.0.9.9.800\BUILD\NATIVE\INCLUDE\GLM\DETAIL\TYPE_VEC3.INL
C:\USERS\MICHEL\DESKTOP\POLY\INF2705\TP\INF2705-TP20221-TP2\TP2_H22\SRC\PACKAGES\GLM.0.9.9.800\BUILD\NATIVE\INCLUDE\GLM\EXT\VECTOR_BOOL3_PRECISION.HPP
C:\USERS\MICHEL\DESKTOP\POLY\INF2705\TP\INF2705-TP20221-TP2\TP2_H22\SRC\PACKAGES\GLM.0.9.9.800\BUILD\NATIVE\INCLUDE\GLM\EXT\VECTOR_FLOAT3.HPP
C:\USERS\MICHEL\DESKTOP\POLY\INF2705\TP\INF2705-TP20221-TP2\TP2_H22\SRC\PACKAGES\GLM.0.9.9.800\BUILD\NATIVE\INCLUDE\GLM\EXT\VECTOR_FLOAT3_PRECISION.HPP
C:\USERS\MICHEL\DESKTOP\POLY\INF2705\TP\INF2705-TP20221-TP2\TP2_H22\SRC\PACKAGES\GLM.0.9.9.800\BUILD\NATIVE\INCLUDE\GLM\EXT\VECTOR_DOUBLE3.HPP
C:\USERS\MICHEL\DESKTOP\POLY\INF2705\TP\INF2705-TP20221-TP2\TP2_H22\SRC\PACKAGES\GLM.0.9.9.800\BUILD\NATIVE\INCLUDE\GLM\EXT\VECTOR_DOUBLE3_PRECISION.HPP
C:\USERS\MICHEL\DESKTOP\POLY\INF2705\TP\INF2705-TP20221-TP2\TP2_H22\SRC\PACKAGES\GLM.0.9.9.800\BUILD\NATIVE\INCLUDE\GLM\EXT\VECTOR_INT3.HPP
C:\USERS\MICHEL\DESKTOP\POLY\INF2705\TP\INF2705-TP20221-TP2\TP2_H22\SRC\PACKAGES\GLM.0.9.9.800\BUILD\NATIVE\INCLUDE\GLM\EXT\VECTOR_INT3_SIZED.HPP
C:\USERS\MICHEL\DESKTOP\POLY\INF2705\TP\INF2705-TP20221-TP2\TP2_H22\SRC\PACKAGES\GLM.0.9.9.800\BUILD\NATIVE\INCLUDE\GLM\EXT\VECTOR_UINT3.HPP
C:\USERS\MICHEL\DESKTOP\POLY\INF2705\TP\INF2705-TP20221-TP2\TP2_H22\SRC\PACKAGES\GLM.0.9.9.800\BUILD\NATIVE\INCLUDE\GLM\EXT\VECTOR_UINT3_SIZED.HPP
C:\USERS\MICHEL\DESKTOP\POLY\INF2705\TP\INF2705-TP20221-TP2\TP2_H22\SRC\PACKAGES\GLM.0.9.9.800\BUILD\NATIVE\INCLUDE\GLM\VEC4.HPP
C:\USERS\MICHEL\DESKTOP\POLY\INF2705\TP\INF2705-TP20221-TP2\TP2_H22\SRC\PACKAGES\GLM.0.9.9.800\BUILD\NATIVE\INCLUDE\GLM\EXT\VECTOR_BOOL4.HPP
C:\USERS\MICHEL\DESKTOP\POLY\INF2705\TP\INF2705-TP20221-TP2\TP2_H22\SRC\PACKAGES\GLM.0.9.9.800\BUILD\NATIVE\INCLUDE\GLM\DETAIL\TYPE_VEC4.HPP
C:\USERS\MICHEL\DESKTOP\POLY\INF2705\TP\INF2705-TP20221-TP2\TP2_H22\SRC\PACKAGES\GLM.0.9.9.800\BUILD\NATIVE\INCLUDE\GLM\DETAIL\TYPE_VEC4.INL
C:\USERS\MICHEL\DESKTOP\POLY\INF2705\TP\INF2705-TP20221-TP2\TP2_H22\SRC\PACKAGES\GLM.0.9.9.800\BUILD\NATIVE\INCLUDE\GLM\EXT\VECTOR_BOOL4_PRECISION.HPP
C:\USERS\MICHEL\DESKTOP\POLY\INF2705\TP\INF2705-TP20221-TP2\TP2_H22\SRC\PACKAGES\GLM.0.9.9.800\BUILD\NATIVE\INCLUDE\GLM\EXT\VECTOR_FLOAT4.HPP
C:\USERS\MICHEL\DESKTOP\POLY\INF2705\TP\INF2705-TP20221-TP2\TP2_H22\SRC\PACKAGES\GLM.0.9.9.800\BUILD\NATIVE\INCLUDE\GLM\EXT\VECTOR_FLOAT4_PRECISION.HPP
C:\USERS\MICHEL\DESKTOP\POLY\INF2705\TP\INF2705-TP20221-TP2\TP2_H22\SRC\PACKAGES\GLM.0.9.9.800\BUILD\NATIVE\INCLUDE\GLM\EXT\VECTOR_DOUBLE4.HPP
C:\USERS\MICHEL\DESKTOP\POLY\INF2705\TP\INF2705-TP20221-TP2\TP2_H22\SRC\PACKAGES\GLM.0.9.9.800\BUILD\NATIVE\INCLUDE\GLM\EXT\VECTOR_DOUBLE4_PRECISION.HPP
C:\USERS\MICHEL\DESKTOP\POLY\INF2705\TP\INF2705-TP20221-TP2\TP2_H22\SRC\PACKAGES\GLM.0.9.9.800\BUILD\NATIVE\INCLUDE\GLM\EXT\VECTOR_INT4.HPP
C:\USERS\MICHEL\DESKTOP\POLY\INF2705\TP\INF2705-TP20221-TP2\TP2_H22\SRC\PACKAGES\GLM.0.9.9.800\BUILD\NATIVE\INCLUDE\GLM\EXT\VECTOR_INT4_SIZED.HPP
C:\USERS\MICHEL\DESKTOP\POLY\INF2705\TP\INF2705-TP20221-TP2\TP2_H22\SRC\PACKAGES\GLM.0.9.9.800\BUILD\NATIVE\INCLUDE\GLM\EXT\VECTOR_UINT4.HPP
C:\USERS\MICHEL\DESKTOP\POLY\INF2705\TP\INF2705-TP20221-TP2\TP2_H22\SRC\PACKAGES\GLM.0.9.9.800\BUILD\NATIVE\INCLUDE\GLM\EXT\VECTOR_UINT4_SIZED.HPP
C:\USERS\MICHEL\DESKTOP\POLY\INF2705\TP\INF2705-TP20221-TP2\TP2_H22\SRC\PACKAGES\GLM.0.9.9.800\BUILD\NATIVE\INCLUDE\GLM\MAT2X2.HPP
C:\USERS\MICHEL\DESKTOP\POLY\INF2705\TP\INF2705-TP20221-TP2\TP2_H22\SRC\PACKAGES\GLM.0.9.9.800\BUILD\NATIVE\INCLUDE\GLM\EXT\MATRIX_DOUBLE2X2.HPP
C:\USERS\MICHEL\DESKTOP\POLY\INF2705\TP\INF2705-TP20221-TP2\TP2_H22\SRC\PACKAGES\GLM.0.9.9.800\BUILD\NATIVE\INCLUDE\GLM\DETAIL\TYPE_MAT2X2.HPP
C:\USERS\MICHEL\DESKTOP\POLY\INF2705\TP\INF2705-TP20221-TP2\TP2_H22\SRC\PACKAGES\GLM.0.9.9.800\BUILD\NATIVE\INCLUDE\GLM\DETAIL\TYPE_MAT2X2.INL
C:\USERS\MICHEL\DESKTOP\POLY\INF2705\TP\INF2705-TP20221-TP2\TP2_H22\SRC\PACKAGES\GLM.0.9.9.800\BUILD\NATIVE\INCLUDE\GLM\MATRIX.HPP
C:\USERS\MICHEL\DESKTOP\POLY\INF2705\TP\INF2705-TP20221-TP2\TP2_H22\SRC\PACKAGES\GLM.0.9.9.800\BUILD\NATIVE\INCLUDE\GLM\MAT2X3.HPP
C:\USERS\MICHEL\DESKTOP\POLY\INF2705\TP\INF2705-TP20221-TP2\TP2_H22\SRC\PACKAGES\GLM.0.9.9.800\BUILD\NATIVE\INCLUDE\GLM\EXT\MATRIX_DOUBLE2X3.HPP
C:\USERS\MICHEL\DESKTOP\POLY\INF2705\TP\INF2705-TP20221-TP2\TP2_H22\SRC\PACKAGES\GLM.0.9.9.800\BUILD\NATIVE\INCLUDE\GLM\DETAIL\TYPE_MAT2X3.HPP
C:\USERS\MICHEL\DESKTOP\POLY\INF2705\TP\INF2705-TP20221-TP2\TP2_H22\SRC\PACKAGES\GLM.0.9.9.800\BUILD\NATIVE\INCLUDE\GLM\DETAIL\TYPE_MAT2X3.INL
C:\USERS\MICHEL\DESKTOP\POLY\INF2705\TP\INF2705-TP20221-TP2\TP2_H22\SRC\PACKAGES\GLM.0.9.9.800\BUILD\NATIVE\INCLUDE\GLM\EXT\MATRIX_DOUBLE2X3_PRECISION.HPP
C:\USERS\MICHEL\DESKTOP\POLY\INF2705\TP\INF2705-TP20221-TP2\TP2_H22\SRC\PACKAGES\GLM.0.9.9.800\BUILD\NATIVE\INCLUDE\GLM\EXT\MATRIX_FLOAT2X3.HPP
C:\USERS\MICHEL\DESKTOP\POLY\INF2705\TP\INF2705-TP20221-TP2\TP2_H22\SRC\PACKAGES\GLM.0.9.9.800\BUILD\NATIVE\INCLUDE\GLM\EXT\MATRIX_FLOAT2X3_PRECISION.HPP
C:\USERS\MICHEL\DESKTOP\POLY\INF2705\TP\INF2705-TP20221-TP2\TP2_H22\SRC\PACKAGES\GLM.0.9.9.800\BUILD\NATIVE\INCLUDE\GLM\MAT2X4.HPP
C:\USERS\MICHEL\DESKTOP\POLY\INF2705\TP\INF2705-TP20221-TP2\TP2_H22\SRC\PACKAGES\GLM.0.9.9.800\BUILD\NATIVE\INCLUDE\GLM\EXT\MATRIX_DOUBLE2X4.HPP
C:\USERS\MICHEL\DESKTOP\POLY\INF2705\TP\INF2705-TP20221-TP2\TP2_H22\SRC\PACKAGES\GLM.0.9.9.800\BUILD\NATIVE\INCLUDE\GLM\DETAIL\TYPE_MAT2X4.HPP
C:\USERS\MICHEL\DESKTOP\POLY\INF2705\TP\INF2705-TP20221-TP2\TP2_H22\SRC\PACKAGES\GLM.0.9.9.800\BUILD\NATIVE\INCLUDE\GLM\DETAIL\TYPE_MAT2X4.INL
C:\USERS\MICHEL\DESKTOP\POLY\INF2705\TP\INF2705-TP20221-TP2\TP2_H22\SRC\PACKAGES\GLM.0.9.9.800\BUILD\NATIVE\INCLUDE\GLM\EXT\MATRIX_DOUBLE2X4_PRECISION.HPP
C:\USERS\MICHEL\DESKTOP\POLY\INF2705\TP\INF2705-TP20221-TP2\TP2_H22\SRC\PACKAGES\GLM.0.9.9.800\BUILD\NATIVE\INCLUDE\GLM\EXT\MATRIX_FLOAT2X4.HPP
C:\USERS\MICHEL\DESKTOP\POLY\INF2705\TP\INF2705-TP20221-TP2\TP2_H22\SRC\PACKAGES\GLM.0.9.9.800\BUILD\NATIVE\INCLUDE\GLM\EXT\MATRIX_FLOAT2X4_PRECISION.HPP
C:\USERS\MICHEL\DESKTOP\POLY\INF2705\TP\INF2705-TP20221-TP2\TP2_H22\SRC\PACKAGES\GLM.0.9.9.800\BUILD\NATIVE\INCLUDE\GLM\MAT3X2.HPP
C:\USERS\MICHEL\DESKTOP\POLY\INF2705\TP\INF2705-TP20221-TP2\TP2_H22\SRC\PACKAGES\GLM.0.9.9.800\BUILD\NATIVE\INCLUDE\GLM\EXT\MATRIX_DOUBLE3X2.HPP
C:\USERS\MICHEL\DESKTOP\POLY\INF2705\TP\INF2705-TP20221-TP2\TP2_H22\SRC\PACKAGES\GLM.0.9.9.800\BUILD\NATIVE\INCLUDE\GLM\DETAIL\TYPE_MAT3X2.HPP
C:\USERS\MICHEL\DESKTOP\POLY\INF2705\TP\INF2705-TP20221-TP2\TP2_H22\SRC\PACKAGES\GLM.0.9.9.800\BUILD\NATIVE\INCLUDE\GLM\DETAIL\TYPE_MAT3X2.INL
C:\USERS\MICHEL\DESKTOP\POLY\INF2705\TP\INF2705-TP20221-TP2\TP2_H22\SRC\PACKAGES\GLM.0.9.9.800\BUILD\NATIVE\INCLUDE\GLM\EXT\MATRIX_DOUBLE3X2_PRECISION.HPP
C:\USERS\MICHEL\DESKTOP\POLY\INF2705\TP\INF2705-TP20221-TP2\TP2_H22\SRC\PACKAGES\GLM.0.9.9.800\BUILD\NATIVE\INCLUDE\GLM\EXT\MATRIX_FLOAT3X2.HPP
C:\USERS\MICHEL\DESKTOP\POLY\INF2705\TP\INF2705-TP20221-TP2\TP2_H22\SRC\PACKAGES\GLM.0.9.9.800\BUILD\NATIVE\INCLUDE\GLM\EXT\MATRIX_FLOAT3X2_PRECISION.HPP
C:\USERS\MICHEL\DESKTOP\POLY\INF2705\TP\INF2705-TP20221-TP2\TP2_H22\SRC\PACKAGES\GLM.0.9.9.800\BUILD\NATIVE\INCLUDE\GLM\MAT3X3.HPP
C:\USERS\MICHEL\DESKTOP\POLY\INF2705\TP\INF2705-TP20221-TP2\TP2_H22\SRC\PACKAGES\GLM.0.9.9.800\BUILD\NATIVE\INCLUDE\GLM\EXT\MATRIX_DOUBLE3X3.HPP
C:\USERS\MICHEL\DESKTOP\POLY\INF2705\TP\INF2705-TP20221-TP2\TP2_H22\SRC\PACKAGES\GLM.0.9.9.800\BUILD\NATIVE\INCLUDE\GLM\DETAIL\TYPE_MAT3X3.HPP
C:\USERS\MICHEL\DESKTOP\POLY\INF2705\TP\INF2705-TP20221-TP2\TP2_H22\SRC\PACKAGES\GLM.0.9.9.800\BUILD\NATIVE\INCLUDE\GLM\DETAIL\TYPE_MAT3X3.INL
C:\USERS\MICHEL\DESKTOP\POLY\INF2705\TP\INF2705-TP20221-TP2\TP2_H22\SRC\PACKAGES\GLM.0.9.9.800\BUILD\NATIVE\INCLUDE\GLM\EXT\MATRIX_DOUBLE3X3_PRECISION.HPP
C:\USERS\MICHEL\DESKTOP\POLY\INF2705\TP\INF2705-TP20221-TP2\TP2_H22\SRC\PACKAGES\GLM.0.9.9.800\BUILD\NATIVE\INCLUDE\GLM\EXT\MATRIX_FLOAT3X3.HPP
C:\USERS\MICHEL\DESKTOP\POLY\INF2705\TP\INF2705-TP20221-TP2\TP2_H22\SRC\PACKAGES\GLM.0.9.9.800\BUILD\NATIVE\INCLUDE\GLM\EXT\MATRIX_FLOAT3X3_PRECISION.HPP
C:\USERS\MICHEL\DESKTOP\POLY\INF2705\TP\INF2705-TP20221-TP2\TP2_H22\SRC\PACKAGES\GLM.0.9.9.800\BUILD\NATIVE\INCLUDE\GLM\MAT3X4.HPP
C:\USERS\MICHEL\DESKTOP\POLY\INF2705\TP\INF2705-TP20221-TP2\TP2_H22\SRC\PACKAGES\GLM.0.9.9.800\BUILD\NATIVE\INCLUDE\GLM\EXT\MATRIX_DOUBLE3X4.HPP
C:\USERS\MICHEL\DESKTOP\POLY\INF2705\TP\INF2705-TP20221-TP2\TP2_H22\SRC\PACKAGES\GLM.0.9.9.800\BUILD\NATIVE\INCLUDE\GLM\DETAIL\TYPE_MAT3X4.HPP
C:\USERS\MICHEL\DESKTOP\POLY\INF2705\TP\INF2705-TP20221-TP2\TP2_H22\SRC\PACKAGES\GLM.0.9.9.800\BUILD\NATIVE\INCLUDE\GLM\DETAIL\TYPE_MAT3X4.INL
C:\USERS\MICHEL\DESKTOP\POLY\INF2705\TP\INF2705-TP20221-TP2\TP2_H22\SRC\PACKAGES\GLM.0.9.9.800\BUILD\NATIVE\INCLUDE\GLM\EXT\MATRIX_DOUBLE3X4_PRECISION.HPP
C:\USERS\MICHEL\DESKTOP\POLY\INF2705\TP\INF2705-TP20221-TP2\TP2_H22\SRC\PACKAGES\GLM.0.9.9.800\BUILD\NATIVE\INCLUDE\GLM\EXT\MATRIX_FLOAT3X4.HPP
C:\USERS\MICHEL\DESKTOP\POLY\INF2705\TP\INF2705-TP20221-TP2\TP2_H22\SRC\PACKAGES\GLM.0.9.9.800\BUILD\NATIVE\INCLUDE\GLM\EXT\MATRIX_FLOAT3X4_PRECISION.HPP
C:\USERS\MICHEL\DESKTOP\POLY\INF2705\TP\INF2705-TP20221-TP2\TP2_H22\SRC\PACKAGES\GLM.0.9.9.800\BUILD\NATIVE\INCLUDE\GLM\MAT4X2.HPP
C:\USERS\MICHEL\DESKTOP\POLY\INF2705\TP\INF2705-TP20221-TP2\TP2_H22\SRC\PACKAGES\GLM.0.9.9.800\BUILD\NATIVE\INCLUDE\GLM\EXT\MATRIX_DOUBLE4X2.HPP
C:\USERS\MICHEL\DESKTOP\POLY\INF2705\TP\INF2705-TP20221-TP2\TP2_H22\SRC\PACKAGES\GLM.0.9.9.800\BUILD\NATIVE\INCLUDE\GLM\DETAIL\TYPE_MAT4X2.HPP
C:\USERS\MICHEL\DESKTOP\POLY\INF2705\TP\INF2705-TP20221-TP2\TP2_H22\SRC\PACKAGES\GLM.0.9.9.800\BUILD\NATIVE\INCLUDE\GLM\DETAIL\TYPE_MAT4X2.INL
C:\USERS\MICHEL\DESKTOP\POLY\INF2705\TP\INF2705-TP20221-TP2\TP2_H22\SRC\PACKAGES\GLM.0.9.9.800\BUILD\NATIVE\INCLUDE\GLM\EXT\MATRIX_DOUBLE4X2_PRECISION.HPP
C:\USERS\MICHEL\DESKTOP\POLY\INF2705\TP\INF2705-TP20221-TP2\TP2_H22\SRC\PACKAGES\GLM.0.9.9.800\BUILD\NATIVE\INCLUDE\GLM\EXT\MATRIX_FLOAT4X2.HPP
C:\USERS\MICHEL\DESKTOP\POLY\INF2705\TP\INF2705-TP20221-TP2\TP2_H22\SRC\PACKAGES\GLM.0.9.9.800\BUILD\NATIVE\INCLUDE\GLM\EXT\MATRIX_FLOAT4X2_PRECISION.HPP
C:\USERS\MICHEL\DESKTOP\POLY\INF2705\TP\INF2705-TP20221-TP2\TP2_H22\SRC\PACKAGES\GLM.0.9.9.800\BUILD\NATIVE\INCLUDE\GLM\MAT4X3.HPP
C:\USERS\MICHEL\DESKTOP\POLY\INF2705\TP\INF2705-TP20221-TP2\TP2_H22\SRC\PACKAGES\GLM.0.9.9.800\BUILD\NATIVE\INCLUDE\GLM\EXT\MATRIX_DOUBLE4X3.HPP
C:\USERS\MICHEL\DESKTOP\POLY\INF2705\TP\INF2705-TP20221-TP2\TP2_H22\SRC\PACKAGES\GLM.0.9.9.800\BUILD\NATIVE\INCLUDE\GLM\DETAIL\TYPE_MAT4X3.HPP
C:\USERS\MICHEL\DESKTOP\POLY\INF2705\TP\INF2705-TP20221-TP2\TP2_H22\SRC\PACKAGES\GLM.0.9.9.800\BUILD\NATIVE\INCLUDE\GLM\DETAIL\TYPE_MAT4X3.INL
C:\USERS\MICHEL\DESKTOP\POLY\INF2705\TP\INF2705-TP20221-TP2\TP2_H22\SRC\PACKAGES\GLM.0.9.9.800\BUILD\NATIVE\INCLUDE\GLM\EXT\MATRIX_DOUBLE4X3_PRECISION.HPP
C:\USERS\MICHEL\DESKTOP\POLY\INF2705\TP\INF2705-TP20221-TP2\TP2_H22\SRC\PACKAGES\GLM.0.9.9.800\BUILD\NATIVE\INCLUDE\GLM\EXT\MATRIX_FLOAT4X3.HPP
C:\USERS\MICHEL\DESKTOP\POLY\INF2705\TP\INF2705-TP20221-TP2\TP2_H22\SRC\PACKAGES\GLM.0.9.9.800\BUILD\NATIVE\INCLUDE\GLM\EXT\MATRIX_FLOAT4X3_PRECISION.HPP
C:\USERS\MICHEL\DESKTOP\POLY\INF2705\TP\INF2705-TP20221-TP2\TP2_H22\SRC\PACKAGES\GLM.0.9.9.800\BUILD\NATIVE\INCLUDE\GLM\MAT4X4.HPP
C:\USERS\MICHEL\DESKTOP\POLY\INF2705\TP\INF2705-TP20221-TP2\TP2_H22\SRC\PACKAGES\GLM.0.9.9.800\BUILD\NATIVE\INCLUDE\GLM\EXT\MATRIX_DOUBLE4X4.HPP
C:\USERS\MICHEL\DESKTOP\POLY\INF2705\TP\INF2705-TP20221-TP2\TP2_H22\SRC\PACKAGES\GLM.0.9.9.800\BUILD\NATIVE\INCLUDE\GLM\DETAIL\TYPE_MAT4X4.HPP
C:\USERS\MICHEL\DESKTOP\POLY\INF2705\TP\INF2705-TP20221-TP2\TP2_H22\SRC\PACKAGES\GLM.0.9.9.800\BUILD\NATIVE\INCLUDE\GLM\DETAIL\TYPE_MAT4X4.INL
C:\USERS\MICHEL\DESKTOP\POLY\INF2705\TP\INF2705-TP20221-TP2\TP2_H22\SRC\PACKAGES\GLM.0.9.9.800\BUILD\NATIVE\INCLUDE\GLM\EXT\MATRIX_DOUBLE4X4_PRECISION.HPP
C:\USERS\MICHEL\DESKTOP\POLY\INF2705\TP\INF2705-TP20221-TP2\TP2_H22\SRC\PACKAGES\GLM.0.9.9.800\BUILD\NATIVE\INCLUDE\GLM\EXT\MATRIX_FLOAT4X4.HPP
C:\USERS\MICHEL\DESKTOP\POLY\INF2705\TP\INF2705-TP20221-TP2\TP2_H22\SRC\PACKAGES\GLM.0.9.9.800\BUILD\NATIVE\INCLUDE\GLM\EXT\MATRIX_FLOAT4X4_PRECISION.HPP
C:\USERS\MICHEL\DESKTOP\POLY\INF2705\TP\INF2705-TP20221-TP2\TP2_H22\SRC\PACKAGES\GLM.0.9.9.800\BUILD\NATIVE\INCLUDE\GLM\DETAIL\FUNC_MATRIX.INL
C:\USERS\MICHEL\DESKTOP\POLY\INF2705\TP\INF2705-TP20221-TP2\TP2_H22\SRC\PACKAGES\GLM.0.9.9.800\BUILD\NATIVE\INCLUDE\GLM\GEOMETRIC.HPP
C:\USERS\MICHEL\DESKTOP\POLY\INF2705\TP\INF2705-TP20221-TP2\TP2_H22\SRC\PACKAGES\GLM.0.9.9.800\BUILD\NATIVE\INCLUDE\GLM\DETAIL\FUNC_GEOMETRIC.INL
C:\USERS\MICHEL\DESKTOP\POLY\INF2705\TP\INF2705-TP20221-TP2\TP2_H22\SRC\PACKAGES\GLM.0.9.9.800\BUILD\NATIVE\INCLUDE\GLM\EXPONENTIAL.HPP
C:\USERS\MICHEL\DESKTOP\POLY\INF2705\TP\INF2705-TP20221-TP2\TP2_H22\SRC\PACKAGES\GLM.0.9.9.800\BUILD\NATIVE\INCLUDE\GLM\DETAIL\TYPE_VEC1.HPP
C:\USERS\MICHEL\DESKTOP\POLY\INF2705\TP\INF2705-TP20221-TP2\TP2_H22\SRC\PACKAGES\GLM.0.9.9.800\BUILD\NATIVE\INCLUDE\GLM\DETAIL\TYPE_VEC1.INL
C:\USERS\MICHEL\DESKTOP\POLY\INF2705\TP\INF2705-TP20221-TP2\TP2_H22\SRC\PACKAGES\GLM.0.9.9.800\BUILD\NATIVE\INCLUDE\GLM\DETAIL\FUNC_EXPONENTIAL.INL
C:\USERS\MICHEL\DESKTOP\POLY\INF2705\TP\INF2705-TP20221-TP2\TP2_H22\SRC\PACKAGES\GLM.0.9.9.800\BUILD\NATIVE\INCLUDE\GLM\VECTOR_RELATIONAL.HPP
C:\USERS\MICHEL\DESKTOP\POLY\INF2705\TP\INF2705-TP20221-TP2\TP2_H22\SRC\PACKAGES\GLM.0.9.9.800\BUILD\NATIVE\INCLUDE\GLM\DETAIL\FUNC_VECTOR_RELATIONAL.INL
C:\USERS\MICHEL\DESKTOP\POLY\INF2705\TP\INF2705-TP20221-TP2\TP2_H22\SRC\PACKAGES\GLM.0.9.9.800\BUILD\NATIVE\INCLUDE\GLM\DETAIL\_VECTORIZE.HPP
C:\USERS\MICHEL\DESKTOP\POLY\INF2705\TP\INF2705-TP20221-TP2\TP2_H22\SRC\PACKAGES\GLM.0.9.9.800\BUILD\NATIVE\INCLUDE\GLM\COMMON.HPP
C:\USERS\MICHEL\DESKTOP\POLY\INF2705\TP\INF2705-TP20221-TP2\TP2_H22\SRC\PACKAGES\GLM.0.9.9.800\BUILD\NATIVE\INCLUDE\GLM\DETAIL\FUNC_COMMON.INL
C:\USERS\MICHEL\DESKTOP\POLY\INF2705\TP\INF2705-TP20221-TP2\TP2_H22\SRC\PACKAGES\GLM.0.9.9.800\BUILD\NATIVE\INCLUDE\GLM\DETAIL\COMPUTE_COMMON.HPP
C:\USERS\MICHEL\DESKTOP\POLY\INF2705\TP\INF2705-TP20221-TP2\TP2_H22\SRC\PACKAGES\GLM.0.9.9.800\BUILD\NATIVE\INCLUDE\GLM\EXT\MATRIX_DOUBLE2X2_PRECISION.HPP
C:\USERS\MICHEL\DESKTOP\POLY\INF2705\TP\INF2705-TP20221-TP2\TP2_H22\SRC\PACKAGES\GLM.0.9.9.800\BUILD\NATIVE\INCLUDE\GLM\EXT\MATRIX_FLOAT2X2.HPP
C:\USERS\MICHEL\DESKTOP\POLY\INF2705\TP\INF2705-TP20221-TP2\TP2_H22\SRC\PACKAGES\GLM.0.9.9.800\BUILD\NATIVE\INCLUDE\GLM\EXT\MATRIX_FLOAT2X2_PRECISION.HPP
C:\USERS\MICHEL\DESKTOP\POLY\INF2705\TP\INF2705-TP20221-TP2\TP2_H22\SRC\PACKAGES\GLM.0.9.9.800\BUILD\NATIVE\INCLUDE\GLM\TRIGONOMETRIC.HPP
C:\USERS\MICHEL\DESKTOP\POLY\INF2705\TP\INF2705-TP20221-TP2\TP2_H22\SRC\PACKAGES\GLM.0.9.9.800\BUILD\NATIVE\INCLUDE\GLM\DETAIL\FUNC_TRIGONOMETRIC.INL
C:\USERS\MICHEL\DESKTOP\POLY\INF2705\TP\INF2705-TP20221-TP2\TP2_H22\SRC\PACKAGES\GLM.0.9.9.800\BUILD\NATIVE\INCLUDE\GLM\PACKING.HPP
C:\USERS\MICHEL\DESKTOP\POLY\INF2705\TP\INF2705-TP20221-TP2\TP2_H22\SRC\PACKAGES\GLM.0.9.9.800\BUILD\NATIVE\INCLUDE\GLM\DETAIL\FUNC_PACKING.INL
C:\USERS\MICHEL\DESKTOP\POLY\INF2705\TP\INF2705-TP20221-TP2\TP2_H22\SRC\PACKAGES\GLM.0.9.9.800\BUILD\NATIVE\INCLUDE\GLM\DETAIL\TYPE_HALF.HPP
C:\USERS\MICHEL\DESKTOP\POLY\INF2705\TP\INF2705-TP20221-TP2\TP2_H22\SRC\PACKAGES\GLM.0.9.9.800\BUILD\NATIVE\INCLUDE\GLM\DETAIL\TYPE_HALF.INL
C:\USERS\MICHEL\DESKTOP\POLY\INF2705\TP\INF2705-TP20221-TP2\TP2_H22\SRC\PACKAGES\GLM.0.9.9.800\BUILD\NATIVE\INCLUDE\GLM\INTEGER.HPP
C:\USERS\MICHEL\DESKTOP\POLY\INF2705\TP\INF2705-TP20221-TP2\TP2_H22\SRC\PACKAGES\GLM.0.9.9.800\BUILD\NATIVE\INCLUDE\GLM\DETAIL\FUNC_INTEGER.INL
C:\PROGRAM FILES (X86)\MICROSOFT VISUAL STUDIO\2019\ENTERPRISE\VC\TOOLS\MSVC\14.28.29333\INCLUDE\INTRIN.H
C:\PROGRAM FILES (X86)\MICROSOFT VISUAL STUDIO\2019\ENTERPRISE\VC\TOOLS\MSVC\14.28.29333\INCLUDE\SETJMP.H
C:\PROGRAM FILES (X86)\MICROSOFT VISUAL STUDIO\2019\ENTERPRISE\VC\TOOLS\MSVC\14.28.29333\INCLUDE\IMMINTRIN.H
C:\PROGRAM FILES (X86)\MICROSOFT VISUAL STUDIO\2019\ENTERPRISE\VC\TOOLS\MSVC\14.28.29333\INCLUDE\WMMINTRIN.H
C:\PROGRAM FILES (X86)\MICROSOFT VISUAL STUDIO\2019\ENTERPRISE\VC\TOOLS\MSVC\14.28.29333\INCLUDE\NMMINTRIN.H
C:\PROGRAM FILES (X86)\MICROSOFT VISUAL STUDIO\2019\ENTERPRISE\VC\TOOLS\MSVC\14.28.29333\INCLUDE\SMMINTRIN.H
C:\PROGRAM FILES (X86)\MICROSOFT VISUAL STUDIO\2019\ENTERPRISE\VC\TOOLS\MSVC\14.28.29333\INCLUDE\TMMINTRIN.H
C:\PROGRAM FILES (X86)\MICROSOFT VISUAL STUDIO\2019\ENTERPRISE\VC\TOOLS\MSVC\14.28.29333\INCLUDE\PMMINTRIN.H
C:\PROGRAM FILES (X86)\MICROSOFT VISUAL STUDIO\2019\ENTERPRISE\VC\TOOLS\MSVC\14.28.29333\INCLUDE\EMMINTRIN.H
C:\PROGRAM FILES (X86)\MICROSOFT VISUAL STUDIO\2019\ENTERPRISE\VC\TOOLS\MSVC\14.28.29333\INCLUDE\XMMINTRIN.H
C:\PROGRAM FILES (X86)\MICROSOFT VISUAL STUDIO\2019\ENTERPRISE\VC\TOOLS\MSVC\14.28.29333\INCLUDE\MMINTRIN.H
C:\PROGRAM FILES (X86)\WINDOWS KITS\10\INCLUDE\10.0.18362.0\UCRT\MALLOC.H
C:\PROGRAM FILES (X86)\MICROSOFT VISUAL STUDIO\2019\ENTERPRISE\VC\TOOLS\MSVC\14.28.29333\INCLUDE\ZMMINTRIN.H
C:\PROGRAM FILES (X86)\MICROSOFT VISUAL STUDIO\2019\ENTERPRISE\VC\TOOLS\MSVC\14.28.29333\INCLUDE\AMMINTRIN.H
C:\PROGRAM FILES (X86)\MICROSOFT VISUAL STUDIO\2019\ENTERPRISE\VC\TOOLS\MSVC\14.28.29333\INCLUDE\MM3DNOW.H
C:\USERS\MICHEL\DESKTOP\POLY\INF2705\TP\INF2705-TP20221-TP2\TP2_H22\SRC\INF2705-SINGLETON.H
^C:\USERS\MICHEL\DESKTOP\POLY\INF2705\TP\INF2705-TP20221-TP2\TP2_H22\SRC\MAIN.CPP
C:\WINDOWS\GLOBALIZATION\SORTING\SORTDEFAULT.NLS
C:\PROGRAM FILES (X86)\MICROSOFT VISUAL STUDIO\2019\ENTERPRISE\VC\TOOLS\MSVC\14.28.29333\BIN\HOSTX86\X86\1033\CLUI.DLL
C:\WINDOWS\SYSTEM32\TZRES.DLL
C:\PROGRAM FILES (X86)\WINDOWS KITS\10\INCLUDE\10.0.18362.0\UCRT\STDLIB.H
C:\PROGRAM FILES (X86)\WINDOWS KITS\10\INCLUDE\10.0.18362.0\UCRT\CORECRT.H
C:\PROGRAM FILES (X86)\MICROSOFT VISUAL STUDIO\2019\ENTERPRISE\VC\TOOLS\MSVC\14.28.29333\INCLUDE\VCRUNTIME.H
C:\PROGRAM FILES (X86)\MICROSOFT VISUAL STUDIO\2019\ENTERPRISE\VC\TOOLS\MSVC\14.28.29333\INCLUDE\SAL.H
C:\PROGRAM FILES (X86)\MICROSOFT VISUAL STUDIO\2019\ENTERPRISE\VC\TOOLS\MSVC\14.28.29333\INCLUDE\CONCURRENCYSAL.H
C:\PROGRAM FILES (X86)\MICROSOFT VISUAL STUDIO\2019\ENTERPRISE\VC\TOOLS\MSVC\14.28.29333\INCLUDE\VADEFS.H
C:\PROGRAM FILES (X86)\WINDOWS KITS\10\INCLUDE\10.0.18362.0\UCRT\CORECRT_MALLOC.H
C:\PROGRAM FILES (X86)\WINDOWS KITS\10\INCLUDE\10.0.18362.0\UCRT\CORECRT_SEARCH.H
C:\PROGRAM FILES (X86)\WINDOWS KITS\10\INCLUDE\10.0.18362.0\UCRT\STDDEF.H
C:\PROGRAM FILES (X86)\WINDOWS KITS\10\INCLUDE\10.0.18362.0\UCRT\CORECRT_WSTDLIB.H
C:\PROGRAM FILES (X86)\MICROSOFT VISUAL STUDIO\2019\ENTERPRISE\VC\TOOLS\MSVC\14.28.29333\INCLUDE\LIMITS.H
C:\PROGRAM FILES (X86)\MICROSOFT VISUAL STUDIO\2019\ENTERPRISE\VC\TOOLS\MSVC\14.28.29333\INCLUDE\IOSTREAM
C:\PROGRAM FILES (X86)\MICROSOFT VISUAL STUDIO\2019\ENTERPRISE\VC\TOOLS\MSVC\14.28.29333\INCLUDE\YVALS_CORE.H
C:\PROGRAM FILES (X86)\MICROSOFT VISUAL STUDIO\2019\ENTERPRISE\VC\TOOLS\MSVC\14.28.29333\INCLUDE\XKEYCHECK.H
C:\PROGRAM FILES (X86)\MICROSOFT VISUAL STUDIO\2019\ENTERPRISE\VC\TOOLS\MSVC\14.28.29333\INCLUDE\ISTREAM
C:\PROGRAM FILES (X86)\MICROSOFT VISUAL STUDIO\2019\ENTERPRISE\VC\TOOLS\MSVC\14.28.29333\INCLUDE\OSTREAM
C:\PROGRAM FILES (X86)\MICROSOFT VISUAL STUDIO\2019\ENTERPRISE\VC\TOOLS\MSVC\14.28.29333\INCLUDE\IOS
C:\PROGRAM FILES (X86)\MICROSOFT VISUAL STUDIO\2019\ENTERPRISE\VC\TOOLS\MSVC\14.28.29333\INCLUDE\XLOCNUM
C:\PROGRAM FILES (X86)\MICROSOFT VISUAL STUDIO\2019\ENTERPRISE\VC\TOOLS\MSVC\14.28.29333\INCLUDE\CLIMITS
C:\PROGRAM FILES (X86)\MICROSOFT VISUAL STUDIO\2019\ENTERPRISE\VC\TOOLS\MSVC\14.28.29333\INCLUDE\CMATH
C:\PROGRAM FILES (X86)\MICROSOFT VISUAL STUDIO\2019\ENTERPRISE\VC\TOOLS\MSVC\14.28.29333\INCLUDE\YVALS.H
C:\PROGRAM FILES (X86)\WINDOWS KITS\10\INCLUDE\10.0.18362.0\UCRT\CRTDBG.H
C:\PROGRAM FILES (X86)\MICROSOFT VISUAL STUDIO\2019\ENTERPRISE\VC\TOOLS\MSVC\14.28.29333\INCLUDE\VCRUNTIME_NEW_DEBUG.H
C:\PROGRAM FILES (X86)\MICROSOFT VISUAL STUDIO\2019\ENTERPRISE\VC\TOOLS\MSVC\14.28.29333\INCLUDE\VCRUNTIME_NEW.H
C:\PROGRAM FILES (X86)\MICROSOFT VISUAL STUDIO\2019\ENTERPRISE\VC\TOOLS\MSVC\14.28.29333\INCLUDE\CRTDEFS.H
C:\PROGRAM FILES (X86)\MICROSOFT VISUAL STUDIO\2019\ENTERPRISE\VC\TOOLS\MSVC\14.28.29333\INCLUDE\USE_ANSI.H
C:\PROGRAM FILES (X86)\MICROSOFT VISUAL STUDIO\2019\ENTERPRISE\VC\TOOLS\MSVC\14.28.29333\INCLUDE\CSTDLIB
C:\PROGRAM FILES (X86)\WINDOWS KITS\10\INCLUDE\10.0.18362.0\UCRT\MATH.H
C:\PROGRAM FILES (X86)\WINDOWS KITS\10\INCLUDE\10.0.18362.0\UCRT\CORECRT_MATH.H
C:\PROGRAM FILES (X86)\MICROSOFT VISUAL STUDIO\2019\ENTERPRISE\VC\TOOLS\MSVC\14.28.29333\INCLUDE\XTR1COMMON
C:\PROGRAM FILES (X86)\MICROSOFT VISUAL STUDIO\2019\ENTERPRISE\VC\TOOLS\MSVC\14.28.29333\INCLUDE\CSTDIO
C:\PROGRAM FILES (X86)\WINDOWS KITS\10\INCLUDE\10.0.18362.0\UCRT\STDIO.H
C:\PROGRAM FILES (X86)\WINDOWS KITS\10\INCLUDE\10.0.18362.0\UCRT\CORECRT_WSTDIO.H
C:\PROGRAM FILES (X86)\WINDOWS KITS\10\INCLUDE\10.0.18362.0\UCRT\CORECRT_STDIO_CONFIG.H
C:\PROGRAM FILES (X86)\MICROSOFT VISUAL STUDIO\2019\ENTERPRISE\VC\TOOLS\MSVC\14.28.29333\INCLUDE\ITERATOR
C:\PROGRAM FILES (X86)\MICROSOFT VISUAL STUDIO\2019\ENTERPRISE\VC\TOOLS\MSVC\14.28.29333\INCLUDE\IOSFWD
C:\PROGRAM FILES (X86)\MICROSOFT VISUAL STUDIO\2019\ENTERPRISE\VC\TOOLS\MSVC\14.28.29333\INCLUDE\CSTRING
C:\PROGRAM FILES (X86)\WINDOWS KITS\10\INCLUDE\10.0.18362.0\UCRT\STRING.H
C:\PROGRAM FILES (X86)\WINDOWS KITS\10\INCLUDE\10.0.18362.0\UCRT\CORECRT_MEMORY.H
C:\PROGRAM FILES (X86)\WINDOWS KITS\10\INCLUDE\10.0.18362.0\UCRT\CORECRT_MEMCPY_S.H
C:\PROGRAM FILES (X86)\WINDOWS KITS\10\INCLUDE\10.0.18362.0\UCRT\ERRNO.H
C:\PROGRAM FILES (X86)\MICROSOFT VISUAL STUDIO\2019\ENTERPRISE\VC\TOOLS\MSVC\14.28.29333\INCLUDE\VCRUNTIME_STRING.H
C:\PROGRAM FILES (X86)\WINDOWS KITS\10\INCLUDE\10.0.18362.0\UCRT\CORECRT_WSTRING.H
C:\PROGRAM FILES (X86)\MICROSOFT VISUAL STUDIO\2019\ENTERPRISE\VC\TOOLS\MSVC\14.28.29333\INCLUDE\CWCHAR
C:\PROGRAM FILES (X86)\WINDOWS KITS\10\INCLUDE\10.0.18362.0\UCRT\WCHAR.H
C:\PROGRAM FILES (X86)\WINDOWS KITS\10\INCLUDE\10.0.18362.0\UCRT\CORECRT_WCONIO.H
C:\PROGRAM FILES (X86)\WINDOWS KITS\10\INCLUDE\10.0.18362.0\UCRT\CORECRT_WCTYPE.H
C:\PROGRAM FILES (X86)\WINDOWS KITS\10\INCLUDE\10.0.18362.0\UCRT\CORECRT_WDIRECT.H
C:\PROGRAM FILES (X86)\WINDOWS KITS\10\INCLUDE\10.0.18362.0\UCRT\CORECRT_WIO.H
C:\PROGRAM FILES (X86)\WINDOWS KITS\10\INCLUDE\10.0.18362.0\UCRT\CORECRT_SHARE.H
C:\PROGRAM FILES (X86)\WINDOWS KITS\10\INCLUDE\10.0.18362.0\UCRT\CORECRT_WPROCESS.H
C:\PROGRAM FILES (X86)\WINDOWS KITS\10\INCLUDE\10.0.18362.0\UCRT\CORECRT_WTIME.H
C:\PROGRAM FILES (X86)\WINDOWS KITS\10\INCLUDE\10.0.18362.0\UCRT\SYS\STAT.H
C:\PROGRAM FILES (X86)\WINDOWS KITS\10\INCLUDE\10.0.18362.0\UCRT\SYS\TYPES.H
C:\PROGRAM FILES (X86)\MICROSOFT VISUAL STUDIO\2019\ENTERPRISE\VC\TOOLS\MSVC\14.28.29333\INCLUDE\XSTDDEF
C:\PROGRAM FILES (X86)\MICROSOFT VISUAL STUDIO\2019\ENTERPRISE\VC\TOOLS\MSVC\14.28.29333\INCLUDE\CSTDDEF
C:\PROGRAM FILES (X86)\MICROSOFT VISUAL STUDIO\2019\ENTERPRISE\VC\TOOLS\MSVC\14.28.29333\INCLUDE\INITIALIZER_LIST
C:\PROGRAM FILES (X86)\MICROSOFT VISUAL STUDIO\2019\ENTERPRISE\VC\TOOLS\MSVC\14.28.29333\INCLUDE\XUTILITY
C:\PROGRAM FILES (X86)\MICROSOFT VISUAL STUDIO\2019\ENTERPRISE\VC\TOOLS\MSVC\14.28.29333\INCLUDE\UTILITY
C:\PROGRAM FILES (X86)\MICROSOFT VISUAL STUDIO\2019\ENTERPRISE\VC\TOOLS\MSVC\14.28.29333\INCLUDE\TYPE_TRAITS
C:\PROGRAM FILES (X86)\MICROSOFT VISUAL STUDIO\2019\ENTERPRISE\VC\TOOLS\MSVC\14.28.29333\INCLUDE\STREAMBUF
C:\PROGRAM FILES (X86)\MICROSOFT VISUAL STUDIO\2019\ENTERPRISE\VC\TOOLS\MSVC\14.28.29333\INCLUDE\XIOSBASE
C:\PROGRAM FILES (X86)\WINDOWS KITS\10\INCLUDE\10.0.18362.0\UCRT\SHARE.H
C:\PROGRAM FILES (X86)\MICROSOFT VISUAL STUDIO\2019\ENTERPRISE\VC\TOOLS\MSVC\14.28.29333\INCLUDE\SYSTEM_ERROR
C:\PROGRAM FILES (X86)\MICROSOFT VISUAL STUDIO\2019\ENTERPRISE\VC\TOOLS\MSVC\14.28.29333\INCLUDE\__MSVC_SYSTEM_ERROR_ABI.HPP
C:\PROGRAM FILES (X86)\MICROSOFT VISUAL STUDIO\2019\ENTERPRISE\VC\TOOLS\MSVC\14.28.29333\INCLUDE\CERRNO
C:\PROGRAM FILES (X86)\MICROSOFT VISUAL STUDIO\2019\ENTERPRISE\VC\TOOLS\MSVC\14.28.29333\INCLUDE\STDEXCEPT
C:\PROGRAM FILES (X86)\MICROSOFT VISUAL STUDIO\2019\ENTERPRISE\VC\TOOLS\MSVC\14.28.29333\INCLUDE\EXCEPTION
C:\PROGRAM FILES (X86)\WINDOWS KITS\10\INCLUDE\10.0.18362.0\UCRT\MALLOC.H
C:\PROGRAM FILES (X86)\MICROSOFT VISUAL STUDIO\2019\ENTERPRISE\VC\TOOLS\MSVC\14.28.29333\INCLUDE\VCRUNTIME_EXCEPTION.H
C:\PROGRAM FILES (X86)\MICROSOFT VISUAL STUDIO\2019\ENTERPRISE\VC\TOOLS\MSVC\14.28.29333\INCLUDE\EH.H
C:\PROGRAM FILES (X86)\WINDOWS KITS\10\INCLUDE\10.0.18362.0\UCRT\CORECRT_TERMINATE.H
C:\PROGRAM FILES (X86)\MICROSOFT VISUAL STUDIO\2019\ENTERPRISE\VC\TOOLS\MSVC\14.28.29333\INCLUDE\XSTRING
C:\PROGRAM FILES (X86)\MICROSOFT VISUAL STUDIO\2019\ENTERPRISE\VC\TOOLS\MSVC\14.28.29333\INCLUDE\XMEMORY
C:\PROGRAM FILES (X86)\MICROSOFT VISUAL STUDIO\2019\ENTERPRISE\VC\TOOLS\MSVC\14.28.29333\INCLUDE\CSTDINT
C:\PROGRAM FILES (X86)\MICROSOFT VISUAL STUDIO\2019\ENTERPRISE\VC\TOOLS\MSVC\14.28.29333\INCLUDE\STDINT.H
C:\PROGRAM FILES (X86)\MICROSOFT VISUAL STUDIO\2019\ENTERPRISE\VC\TOOLS\MSVC\14.28.29333\INCLUDE\LIMITS
C:\PROGRAM FILES (X86)\MICROSOFT VISUAL STUDIO\2019\ENTERPRISE\VC\TOOLS\MSVC\14.28.29333\INCLUDE\CFLOAT
C:\PROGRAM FILES (X86)\WINDOWS KITS\10\INCLUDE\10.0.18362.0\UCRT\FLOAT.H
C:\PROGRAM FILES (X86)\MICROSOFT VISUAL STUDIO\2019\ENTERPRISE\VC\TOOLS\MSVC\14.28.29333\INCLUDE\INTRIN0.H
C:\PROGRAM FILES (X86)\MICROSOFT VISUAL STUDIO\2019\ENTERPRISE\VC\TOOLS\MSVC\14.28.29333\INCLUDE\ISA_AVAILABILITY.H
C:\PROGRAM FILES (X86)\MICROSOFT VISUAL STUDIO\2019\ENTERPRISE\VC\TOOLS\MSVC\14.28.29333\INCLUDE\NEW
C:\PROGRAM FILES (X86)\MICROSOFT VISUAL STUDIO\2019\ENTERPRISE\VC\TOOLS\MSVC\14.28.29333\INCLUDE\XATOMIC.H
C:\PROGRAM FILES (X86)\MICROSOFT VISUAL STUDIO\2019\ENTERPRISE\VC\TOOLS\MSVC\14.28.29333\INCLUDE\XPOLYMORPHIC_ALLOCATOR.H
C:\PROGRAM FILES (X86)\MICROSOFT VISUAL STUDIO\2019\ENTERPRISE\VC\TOOLS\MSVC\14.28.29333\INCLUDE\TUPLE
C:\PROGRAM FILES (X86)\MICROSOFT VISUAL STUDIO\2019\ENTERPRISE\VC\TOOLS\MSVC\14.28.29333\INCLUDE\XCALL_ONCE.H
C:\PROGRAM FILES (X86)\MICROSOFT VISUAL STUDIO\2019\ENTERPRISE\VC\TOOLS\MSVC\14.28.29333\INCLUDE\XERRC.H
C:\PROGRAM FILES (X86)\MICROSOFT VISUAL STUDIO\2019\ENTERPRISE\VC\TOOLS\MSVC\14.28.29333\INCLUDE\ATOMIC
C:\PROGRAM FILES (X86)\MICROSOFT VISUAL STUDIO\2019\ENTERPRISE\VC\TOOLS\MSVC\14.28.29333\INCLUDE\XTHREADS.H
C:\PROGRAM FILES (X86)\MICROSOFT VISUAL STUDIO\2019\ENTERPRISE\VC\TOOLS\MSVC\14.28.29333\INCLUDE\XTIMEC.H
C:\PROGRAM FILES (X86)\WINDOWS KITS\10\INCLUDE\10.0.18362.0\UCRT\TIME.H
C:\PROGRAM FILES (X86)\MICROSOFT VISUAL STUDIO\2019\ENTERPRISE\VC\TOOLS\MSVC\14.28.29333\INCLUDE\XLOCALE
C:\PROGRAM FILES (X86)\MICROSOFT VISUAL STUDIO\2019\ENTERPRISE\VC\TOOLS\MSVC\14.28.29333\INCLUDE\MEMORY
C:\PROGRAM FILES (X86)\MICROSOFT VISUAL STUDIO\2019\ENTERPRISE\VC\TOOLS\MSVC\14.28.29333\INCLUDE\TYPEINFO
C:\PROGRAM FILES (X86)\MICROSOFT VISUAL STUDIO\2019\ENTERPRISE\VC\TOOLS\MSVC\14.28.29333\INCLUDE\VCRUNTIME_TYPEINFO.H
C:\PROGRAM FILES (X86)\MICROSOFT VISUAL STUDIO\2019\ENTERPRISE\VC\TOOLS\MSVC\14.28.29333\INCLUDE\XFACET
C:\PROGRAM FILES (X86)\MICROSOFT VISUAL STUDIO\2019\ENTERPRISE\VC\TOOLS\MSVC\14.28.29333\INCLUDE\XLOCINFO
C:\PROGRAM FILES (X86)\MICROSOFT VISUAL STUDIO\2019\ENTERPRISE\VC\TOOLS\MSVC\14.28.29333\INCLUDE\XLOCINFO.H
C:\PROGRAM FILES (X86)\WINDOWS KITS\10\INCLUDE\10.0.18362.0\UCRT\CTYPE.H
C:\PROGRAM FILES (X86)\WINDOWS KITS\10\INCLUDE\10.0.18362.0\UCRT\LOCALE.H
C:\USERS\MICHEL\DESKTOP\POLY\INF2705\TP\INF2705-TP20221-TP2\TP2_H22\SRC\INF2705-MATRICE.H
C:\USERS\MICHEL\DESKTOP\POLY\INF2705\TP\INF2705-TP20221-TP2\TP2_H22\SRC\PACKAGES\GLEW-2.2.0.2.2.0.1\BUILD\NATIVE\INCLUDE\GL\GLEW.H
C:\PROGRAM FILES (X86)\WINDOWS KITS\10\INCLUDE\10.0.18362.0\UM\GL\GLU.H
C:\PROGRAM FILES (X86)\WINDOWS KITS\10\INCLUDE\10.0.18362.0\SHARED\WINAPIFAMILY.H
C:\PROGRAM FILES (X86)\WINDOWS KITS\10\INCLUDE\10.0.18362.0\SHARED\WINPACKAGEFAMILY.H
C:\PROGRAM FILES (X86)\WINDOWS KITS\10\INCLUDE\10.0.18362.0\UM\GL\GL.H
C:\USERS\MICHEL\DESKTOP\POLY\INF2705\TP\INF2705-TP20221-TP2\TP2_H22\SRC\PACKAGES\GLM.0.9.9.800\BUILD\NATIVE\INCLUDE\GLM\DETAIL\SETUP.HPP
C:\PROGRAM FILES (X86)\MICROSOFT VISUAL STUDIO\2019\ENTERPRISE\VC\TOOLS\MSVC\14.28.29333\INCLUDE\CASSERT
C:\PROGRAM FILES (X86)\WINDOWS KITS\10\INCLUDE\10.0.18362.0\UCRT\ASSERT.H
C:\USERS\MICHEL\DESKTOP\POLY\INF2705\TP\INF2705-TP20221-TP2\TP2_H22\SRC\PACKAGES\GLM.0.9.9.800\BUILD\NATIVE\INCLUDE\GLM\SIMD\PLATFORM.H
C:\USERS\MICHEL\DESKTOP\POLY\INF2705\TP\INF2705-TP20221-TP2\TP2_H22\SRC\PACKAGES\GLM.0.9.9.800\BUILD\NATIVE\INCLUDE\GLM\GLM.HPP
C:\USERS\MICHEL\DESKTOP\POLY\INF2705\TP\INF2705-TP20221-TP2\TP2_H22\SRC\PACKAGES\GLM.0.9.9.800\BUILD\NATIVE\INCLUDE\GLM\DETAIL\_FIXES.HPP
C:\USERS\MICHEL\DESKTOP\POLY\INF2705\TP\INF2705-TP20221-TP2\TP2_H22\SRC\PACKAGES\GLM.0.9.9.800\BUILD\NATIVE\INCLUDE\GLM\FWD.HPP
C:\USERS\MICHEL\DESKTOP\POLY\INF2705\TP\INF2705-TP20221-TP2\TP2_H22\SRC\PACKAGES\GLM.0.9.9.800\BUILD\NATIVE\INCLUDE\GLM\DETAIL\QUALIFIER.HPP
C:\USERS\MICHEL\DESKTOP\POLY\INF2705\TP\INF2705-TP20221-TP2\TP2_H22\SRC\PACKAGES\GLM.0.9.9.800\BUILD\NATIVE\INCLUDE\GLM\VEC2.HPP
C:\USERS\MICHEL\DESKTOP\POLY\INF2705\TP\INF2705-TP20221-TP2\TP2_H22\SRC\PACKAGES\GLM.0.9.9.800\BUILD\NATIVE\INCLUDE\GLM\EXT\VECTOR_BOOL2.HPP
C:\USERS\MICHEL\DESKTOP\POLY\INF2705\TP\INF2705-TP20221-TP2\TP2_H22\SRC\PACKAGES\GLM.0.9.9.800\BUILD\NATIVE\INCLUDE\GLM\DETAIL\TYPE_VEC2.HPP
C:\USERS\MICHEL\DESKTOP\POLY\INF2705\TP\INF2705-TP20221-TP2\TP2_H22\SRC\PACKAGES\GLM.0.9.9.800\BUILD\NATIVE\INCLUDE\GLM\DETAIL\TYPE_VEC2.INL
C:\USERS\MICHEL\DESKTOP\POLY\INF2705\TP\INF2705-TP20221-TP2\TP2_H22\SRC\PACKAGES\GLM.0.9.9.800\BUILD\NATIVE\INCLUDE\GLM\DETAIL\COMPUTE_VECTOR_RELATIONAL.HPP
C:\USERS\MICHEL\DESKTOP\POLY\INF2705\TP\INF2705-TP20221-TP2\TP2_H22\SRC\PACKAGES\GLM.0.9.9.800\BUILD\NATIVE\INCLUDE\GLM\EXT\VECTOR_BOOL2_PRECISION.HPP
C:\USERS\MICHEL\DESKTOP\POLY\INF2705\TP\INF2705-TP20221-TP2\TP2_H22\SRC\PACKAGES\GLM.0.9.9.800\BUILD\NATIVE\INCLUDE\GLM\EXT\VECTOR_FLOAT2.HPP
C:\USERS\MICHEL\DESKTOP\POLY\INF2705\TP\INF2705-TP20221-TP2\TP2_H22\SRC\PACKAGES\GLM.0.9.9.800\BUILD\NATIVE\INCLUDE\GLM\EXT\VECTOR_FLOAT2_PRECISION.HPP
C:\USERS\MICHEL\DESKTOP\POLY\INF2705\TP\INF2705-TP20221-TP2\TP2_H22\SRC\PACKAGES\GLM.0.9.9.800\BUILD\NATIVE\INCLUDE\GLM\EXT\VECTOR_DOUBLE2.HPP
C:\USERS\MICHEL\DESKTOP\POLY\INF2705\TP\INF2705-TP20221-TP2\TP2_H22\SRC\PACKAGES\GLM.0.9.9.800\BUILD\NATIVE\INCLUDE\GLM\EXT\VECTOR_DOUBLE2_PRECISION.HPP
C:\USERS\MICHEL\DESKTOP\POLY\INF2705\TP\INF2705-TP20221-TP2\TP2_H22\SRC\PACKAGES\GLM.0.9.9.800\BUILD\NATIVE\INCLUDE\GLM\EXT\VECTOR_INT2.HPP
C:\USERS\MICHEL\DESKTOP\POLY\INF2705\TP\INF2705-TP20221-TP2\TP2_H22\SRC\PACKAGES\GLM.0.9.9.800\BUILD\NATIVE\INCLUDE\GLM\EXT\VECTOR_INT2_SIZED.HPP
C:\USERS\MICHEL\DESKTOP\POLY\INF2705\TP\INF2705-TP20221-TP2\TP2_H22\SRC\PACKAGES\GLM.0.9.9.800\BUILD\NATIVE\INCLUDE\GLM\EXT\SCALAR_INT_SIZED.HPP
C:\USERS\MICHEL\DESKTOP\POLY\INF2705\TP\INF2705-TP20221-TP2\TP2_H22\SRC\PACKAGES\GLM.0.9.9.800\BUILD\NATIVE\INCLUDE\GLM\EXT\VECTOR_UINT2.HPP
C:\USERS\MICHEL\DESKTOP\POLY\INF2705\TP\INF2705-TP20221-TP2\TP2_H22\SRC\PACKAGES\GLM.0.9.9.800\BUILD\NATIVE\INCLUDE\GLM\EXT\VECTOR_UINT2_SIZED.HPP
C:\USERS\MICHEL\DESKTOP\POLY\INF2705\TP\INF2705-TP20221-TP2\TP2_H22\SRC\PACKAGES\GLM.0.9.9.800\BUILD\NATIVE\INCLUDE\GLM\EXT\SCALAR_UINT_SIZED.HPP
C:\USERS\MICHEL\DESKTOP\POLY\INF2705\TP\INF2705-TP20221-TP2\TP2_H22\SRC\PACKAGES\GLM.0.9.9.800\BUILD\NATIVE\INCLUDE\GLM\VEC3.HPP
C:\USERS\MICHEL\DESKTOP\POLY\INF2705\TP\INF2705-TP20221-TP2\TP2_H22\SRC\PACKAGES\GLM.0.9.9.800\BUILD\NATIVE\INCLUDE\GLM\EXT\VECTOR_BOOL3.HPP
C:\USERS\MICHEL\DESKTOP\POLY\INF2705\TP\INF2705-TP20221-TP2\TP2_H22\SRC\PACKAGES\GLM.0.9.9.800\BUILD\NATIVE\INCLUDE\GLM\DETAIL\TYPE_VEC3.HPP
C:\USERS\MICHEL\DESKTOP\POLY\INF2705\TP\INF2705-TP20221-TP2\TP2_H22\SRC\PACKAGES\GLM.0.9.9.800\BUILD\NATIVE\INCLUDE\GLM\DETAIL\TYPE_VEC3.INL
C:\USERS\MICHEL\DESKTOP\POLY\INF2705\TP\INF2705-TP20221-TP2\TP2_H22\SRC\PACKAGES\GLM.0.9.9.800\BUILD\NATIVE\INCLUDE\GLM\EXT\VECTOR_BOOL3_PRECISION.HPP
C:\USERS\MICHEL\DESKTOP\POLY\INF2705\TP\INF2705-TP20221-TP2\TP2_H22\SRC\PACKAGES\GLM.0.9.9.800\BUILD\NATIVE\INCLUDE\GLM\EXT\VECTOR_FLOAT3.HPP
C:\USERS\MICHEL\DESKTOP\POLY\INF2705\TP\INF2705-TP20221-TP2\TP2_H22\SRC\PACKAGES\GLM.0.9.9.800\BUILD\NATIVE\INCLUDE\GLM\EXT\VECTOR_FLOAT3_PRECISION.HPP
C:\USERS\MICHEL\DESKTOP\POLY\INF2705\TP\INF2705-TP20221-TP2\TP2_H22\SRC\PACKAGES\GLM.0.9.9.800\BUILD\NATIVE\INCLUDE\GLM\EXT\VECTOR_DOUBLE3.HPP
C:\USERS\MICHEL\DESKTOP\POLY\INF2705\TP\INF2705-TP20221-TP2\TP2_H22\SRC\PACKAGES\GLM.0.9.9.800\BUILD\NATIVE\INCLUDE\GLM\EXT\VECTOR_DOUBLE3_PRECISION.HPP
C:\USERS\MICHEL\DESKTOP\POLY\INF2705\TP\INF2705-TP20221-TP2\TP2_H22\SRC\PACKAGES\GLM.0.9.9.800\BUILD\NATIVE\INCLUDE\GLM\EXT\VECTOR_INT3.HPP
C:\USERS\MICHEL\DESKTOP\POLY\INF2705\TP\INF2705-TP20221-TP2\TP2_H22\SRC\PACKAGES\GLM.0.9.9.800\BUILD\NATIVE\INCLUDE\GLM\EXT\VECTOR_INT3_SIZED.HPP
C:\USERS\MICHEL\DESKTOP\POLY\INF2705\TP\INF2705-TP20221-TP2\TP2_H22\SRC\PACKAGES\GLM.0.9.9.800\BUILD\NATIVE\INCLUDE\GLM\EXT\VECTOR_UINT3.HPP
C:\USERS\MICHEL\DESKTOP\POLY\INF2705\TP\INF2705-TP20221-TP2\TP2_H22\SRC\PACKAGES\GLM.0.9.9.800\BUILD\NATIVE\INCLUDE\GLM\EXT\VECTOR_UINT3_SIZED.HPP
C:\USERS\MICHEL\DESKTOP\POLY\INF2705\TP\INF2705-TP20221-TP2\TP2_H22\SRC\PACKAGES\GLM.0.9.9.800\BUILD\NATIVE\INCLUDE\GLM\VEC4.HPP
C:\USERS\MICHEL\DESKTOP\POLY\INF2705\TP\INF2705-TP20221-TP2\TP2_H22\SRC\PACKAGES\GLM.0.9.9.800\BUILD\NATIVE\INCLUDE\GLM\EXT\VECTOR_BOOL4.HPP
C:\USERS\MICHEL\DESKTOP\POLY\INF2705\TP\INF2705-TP20221-TP2\TP2_H22\SRC\PACKAGES\GLM.0.9.9.800\BUILD\NATIVE\INCLUDE\GLM\DETAIL\TYPE_VEC4.HPP
C:\USERS\MICHEL\DESKTOP\POLY\INF2705\TP\INF2705-TP20221-TP2\TP2_H22\SRC\PACKAGES\GLM.0.9.9.800\BUILD\NATIVE\INCLUDE\GLM\DETAIL\TYPE_VEC4.INL
C:\USERS\MICHEL\DESKTOP\POLY\INF2705\TP\INF2705-TP20221-TP2\TP2_H22\SRC\PACKAGES\GLM.0.9.9.800\BUILD\NATIVE\INCLUDE\GLM\EXT\VECTOR_BOOL4_PRECISION.HPP
C:\USERS\MICHEL\DESKTOP\POLY\INF2705\TP\INF2705-TP20221-TP2\TP2_H22\SRC\PACKAGES\GLM.0.9.9.800\BUILD\NATIVE\INCLUDE\GLM\EXT\VECTOR_FLOAT4.HPP
C:\USERS\MICHEL\DESKTOP\POLY\INF2705\TP\INF2705-TP20221-TP2\TP2_H22\SRC\PACKAGES\GLM.0.9.9.800\BUILD\NATIVE\INCLUDE\GLM\EXT\VECTOR_FLOAT4_PRECISION.HPP
C:\USERS\MICHEL\DESKTOP\POLY\INF2705\TP\INF2705-TP20221-TP2\TP2_H22\SRC\PACKAGES\GLM.0.9.9.800\BUILD\NATIVE\INCLUDE\GLM\EXT\VECTOR_DOUBLE4.HPP
C:\USERS\MICHEL\DESKTOP\POLY\INF2705\TP\INF2705-TP20221-TP2\TP2_H22\SRC\PACKAGES\GLM.0.9.9.800\BUILD\NATIVE\INCLUDE\GLM\EXT\VECTOR_DOUBLE4_PRECISION.HPP
C:\USERS\MICHEL\DESKTOP\POLY\INF2705\TP\INF2705-TP20221-TP2\TP2_H22\SRC\PACKAGES\GLM.0.9.9.800\BUILD\NATIVE\INCLUDE\GLM\EXT\VECTOR_INT4.HPP
C:\USERS\MICHEL\DESKTOP\POLY\INF2705\TP\INF2705-TP20221-TP2\TP2_H22\SRC\PACKAGES\GLM.0.9.9.800\BUILD\NATIVE\INCLUDE\GLM\EXT\VECTOR_INT4_SIZED.HPP
C:\USERS\MICHEL\DESKTOP\POLY\INF2705\TP\INF2705-TP20221-TP2\TP2_H22\SRC\PACKAGES\GLM.0.9.9.800\BUILD\NATIVE\INCLUDE\GLM\EXT\VECTOR_UINT4.HPP
C:\USERS\MICHEL\DESKTOP\POLY\INF2705\TP\INF2705-TP20221-TP2\TP2_H22\SRC\PACKAGES\GLM.0.9.9.800\BUILD\NATIVE\INCLUDE\GLM\EXT\VECTOR_UINT4_SIZED.HPP
C:\USERS\MICHEL\DESKTOP\POLY\INF2705\TP\INF2705-TP20221-TP2\TP2_H22\SRC\PACKAGES\GLM.0.9.9.800\BUILD\NATIVE\INCLUDE\GLM\MAT2X2.HPP
C:\USERS\MICHEL\DESKTOP\POLY\INF2705\TP\INF2705-TP20221-TP2\TP2_H22\SRC\PACKAGES\GLM.0.9.9.800\BUILD\NATIVE\INCLUDE\GLM\EXT\MATRIX_DOUBLE2X2.HPP
C:\USERS\MICHEL\DESKTOP\POLY\INF2705\TP\INF2705-TP20221-TP2\TP2_H22\SRC\PACKAGES\GLM.0.9.9.800\BUILD\NATIVE\INCLUDE\GLM\DETAIL\TYPE_MAT2X2.HPP
C:\USERS\MICHEL\DESKTOP\POLY\INF2705\TP\INF2705-TP20221-TP2\TP2_H22\SRC\PACKAGES\GLM.0.9.9.800\BUILD\NATIVE\INCLUDE\GLM\DETAIL\TYPE_MAT2X2.INL
C:\USERS\MICHEL\DESKTOP\POLY\INF2705\TP\INF2705-TP20221-TP2\TP2_H22\SRC\PACKAGES\GLM.0.9.9.800\BUILD\NATIVE\INCLUDE\GLM\MATRIX.HPP
C:\USERS\MICHEL\DESKTOP\POLY\INF2705\TP\INF2705-TP20221-TP2\TP2_H22\SRC\PACKAGES\GLM.0.9.9.800\BUILD\NATIVE\INCLUDE\GLM\MAT2X3.HPP
C:\USERS\MICHEL\DESKTOP\POLY\INF2705\TP\INF2705-TP20221-TP2\TP2_H22\SRC\PACKAGES\GLM.0.9.9.800\BUILD\NATIVE\INCLUDE\GLM\EXT\MATRIX_DOUBLE2X3.HPP
C:\USERS\MICHEL\DESKTOP\POLY\INF2705\TP\INF2705-TP20221-TP2\TP2_H22\SRC\PACKAGES\GLM.0.9.9.800\BUILD\NATIVE\INCLUDE\GLM\DETAIL\TYPE_MAT2X3.HPP
C:\USERS\MICHEL\DESKTOP\POLY\INF2705\TP\INF2705-TP20221-TP2\TP2_H22\SRC\PACKAGES\GLM.0.9.9.800\BUILD\NATIVE\INCLUDE\GLM\DETAIL\TYPE_MAT2X3.INL
C:\USERS\MICHEL\DESKTOP\POLY\INF2705\TP\INF2705-TP20221-TP2\TP2_H22\SRC\PACKAGES\GLM.0.9.9.800\BUILD\NATIVE\INCLUDE\GLM\EXT\MATRIX_DOUBLE2X3_PRECISION.HPP
C:\USERS\MICHEL\DESKTOP\POLY\INF2705\TP\INF2705-TP20221-TP2\TP2_H22\SRC\PACKAGES\GLM.0.9.9.800\BUILD\NATIVE\INCLUDE\GLM\EXT\MATRIX_FLOAT2X3.HPP
C:\USERS\MICHEL\DESKTOP\POLY\INF2705\TP\INF2705-TP20221-TP2\TP2_H22\SRC\PACKAGES\GLM.0.9.9.800\BUILD\NATIVE\INCLUDE\GLM\EXT\MATRIX_FLOAT2X3_PRECISION.HPP
C:\USERS\MICHEL\DESKTOP\POLY\INF2705\TP\INF2705-TP20221-TP2\TP2_H22\SRC\PACKAGES\GLM.0.9.9.800\BUILD\NATIVE\INCLUDE\GLM\MAT2X4.HPP
C:\USERS\MICHEL\DESKTOP\POLY\INF2705\TP\INF2705-TP20221-TP2\TP2_H22\SRC\PACKAGES\GLM.0.9.9.800\BUILD\NATIVE\INCLUDE\GLM\EXT\MATRIX_DOUBLE2X4.HPP
C:\USERS\MICHEL\DESKTOP\POLY\INF2705\TP\INF2705-TP20221-TP2\TP2_H22\SRC\PACKAGES\GLM.0.9.9.800\BUILD\NATIVE\INCLUDE\GLM\DETAIL\TYPE_MAT2X4.HPP
C:\USERS\MICHEL\DESKTOP\POLY\INF2705\TP\INF2705-TP20221-TP2\TP2_H22\SRC\PACKAGES\GLM.0.9.9.800\BUILD\NATIVE\INCLUDE\GLM\DETAIL\TYPE_MAT2X4.INL
C:\USERS\MICHEL\DESKTOP\POLY\INF2705\TP\INF2705-TP20221-TP2\TP2_H22\SRC\PACKAGES\GLM.0.9.9.800\BUILD\NATIVE\INCLUDE\GLM\EXT\MATRIX_DOUBLE2X4_PRECISION.HPP
C:\USERS\MICHEL\DESKTOP\POLY\INF2705\TP\INF2705-TP20221-TP2\TP2_H22\SRC\PACKAGES\GLM.0.9.9.800\BUILD\NATIVE\INCLUDE\GLM\EXT\MATRIX_FLOAT2X4.HPP
C:\USERS\MICHEL\DESKTOP\POLY\INF2705\TP\INF2705-TP20221-TP2\TP2_H22\SRC\PACKAGES\GLM.0.9.9.800\BUILD\NATIVE\INCLUDE\GLM\EXT\MATRIX_FLOAT2X4_PRECISION.HPP
C:\USERS\MICHEL\DESKTOP\POLY\INF2705\TP\INF2705-TP20221-TP2\TP2_H22\SRC\PACKAGES\GLM.0.9.9.800\BUILD\NATIVE\INCLUDE\GLM\MAT3X2.HPP
C:\USERS\MICHEL\DESKTOP\POLY\INF2705\TP\INF2705-TP20221-TP2\TP2_H22\SRC\PACKAGES\GLM.0.9.9.800\BUILD\NATIVE\INCLUDE\GLM\EXT\MATRIX_DOUBLE3X2.HPP
C:\USERS\MICHEL\DESKTOP\POLY\INF2705\TP\INF2705-TP20221-TP2\TP2_H22\SRC\PACKAGES\GLM.0.9.9.800\BUILD\NATIVE\INCLUDE\GLM\DETAIL\TYPE_MAT3X2.HPP
C:\USERS\MICHEL\DESKTOP\POLY\INF2705\TP\INF2705-TP20221-TP2\TP2_H22\SRC\PACKAGES\GLM.0.9.9.800\BUILD\NATIVE\INCLUDE\GLM\DETAIL\TYPE_MAT3X2.INL
C:\USERS\MICHEL\DESKTOP\POLY\INF2705\TP\INF2705-TP20221-TP2\TP2_H22\SRC\PACKAGES\GLM.0.9.9.800\BUILD\NATIVE\INCLUDE\GLM\EXT\MATRIX_DOUBLE3X2_PRECISION.HPP
C:\USERS\MICHEL\DESKTOP\POLY\INF2705\TP\INF2705-TP20221-TP2\TP2_H22\SRC\PACKAGES\GLM.0.9.9.800\BUILD\NATIVE\INCLUDE\GLM\EXT\MATRIX_FLOAT3X2.HPP
C:\USERS\MICHEL\DESKTOP\POLY\INF2705\TP\INF2705-TP20221-TP2\TP2_H22\SRC\PACKAGES\GLM.0.9.9.800\BUILD\NATIVE\INCLUDE\GLM\EXT\MATRIX_FLOAT3X2_PRECISION.HPP
C:\USERS\MICHEL\DESKTOP\POLY\INF2705\TP\INF2705-TP20221-TP2\TP2_H22\SRC\PACKAGES\GLM.0.9.9.800\BUILD\NATIVE\INCLUDE\GLM\MAT3X3.HPP
C:\USERS\MICHEL\DESKTOP\POLY\INF2705\TP\INF2705-TP20221-TP2\TP2_H22\SRC\PACKAGES\GLM.0.9.9.800\BUILD\NATIVE\INCLUDE\GLM\EXT\MATRIX_DOUBLE3X3.HPP
C:\USERS\MICHEL\DESKTOP\POLY\INF2705\TP\INF2705-TP20221-TP2\TP2_H22\SRC\PACKAGES\GLM.0.9.9.800\BUILD\NATIVE\INCLUDE\GLM\DETAIL\TYPE_MAT3X3.HPP
C:\USERS\MICHEL\DESKTOP\POLY\INF2705\TP\INF2705-TP20221-TP2\TP2_H22\SRC\PACKAGES\GLM.0.9.9.800\BUILD\NATIVE\INCLUDE\GLM\DETAIL\TYPE_MAT3X3.INL
C:\USERS\MICHEL\DESKTOP\POLY\INF2705\TP\INF2705-TP20221-TP2\TP2_H22\SRC\PACKAGES\GLM.0.9.9.800\BUILD\NATIVE\INCLUDE\GLM\EXT\MATRIX_DOUBLE3X3_PRECISION.HPP
C:\USERS\MICHEL\DESKTOP\POLY\INF2705\TP\INF2705-TP20221-TP2\TP2_H22\SRC\PACKAGES\GLM.0.9.9.800\BUILD\NATIVE\INCLUDE\GLM\EXT\MATRIX_FLOAT3X3.HPP
C:\USERS\MICHEL\DESKTOP\POLY\INF2705\TP\INF2705-TP20221-TP2\TP2_H22\SRC\PACKAGES\GLM.0.9.9.800\BUILD\NATIVE\INCLUDE\GLM\EXT\MATRIX_FLOAT3X3_PRECISION.HPP
C:\USERS\MICHEL\DESKTOP\POLY\INF2705\TP\INF2705-TP20221-TP2\TP2_H22\SRC\PACKAGES\GLM.0.9.9.800\BUILD\NATIVE\INCLUDE\GLM\MAT3X4.HPP
C:\USERS\MICHEL\DESKTOP\POLY\INF2705\TP\INF2705-TP20221-TP2\TP2_H22\SRC\PACKAGES\GLM.0.9.9.800\BUILD\NATIVE\INCLUDE\GLM\EXT\MATRIX_DOUBLE3X4.HPP
C:\USERS\MICHEL\DESKTOP\POLY\INF2705\TP\INF2705-TP20221-TP2\TP2_H22\SRC\PACKAGES\GLM.0.9.9.800\BUILD\NATIVE\INCLUDE\GLM\DETAIL\TYPE_MAT3X4.HPP
C:\USERS\MICHEL\DESKTOP\POLY\INF2705\TP\INF2705-TP20221-TP2\TP2_H22\SRC\PACKAGES\GLM.0.9.9.800\BUILD\NATIVE\INCLUDE\GLM\DETAIL\TYPE_MAT3X4.INL
C:\USERS\MICHEL\DESKTOP\POLY\INF2705\TP\INF2705-TP20221-TP2\TP2_H22\SRC\PACKAGES\GLM.0.9.9.800\BUILD\NATIVE\INCLUDE\GLM\EXT\MATRIX_DOUBLE3X4_PRECISION.HPP
C:\USERS\MICHEL\DESKTOP\POLY\INF2705\TP\INF2705-TP20221-TP2\TP2_H22\SRC\PACKAGES\GLM.0.9.9.800\BUILD\NATIVE\INCLUDE\GLM\EXT\MATRIX_FLOAT3X4.HPP
C:\USERS\MICHEL\DESKTOP\POLY\INF2705\TP\INF2705-TP20221-TP2\TP2_H22\SRC\PACKAGES\GLM.0.9.9.800\BUILD\NATIVE\INCLUDE\GLM\EXT\MATRIX_FLOAT3X4_PRECISION.HPP
C:\USERS\MICHEL\DESKTOP\POLY\INF2705\TP\INF2705-TP20221-TP2\TP2_H22\SRC\PACKAGES\GLM.0.9.9.800\BUILD\NATIVE\INCLUDE\GLM\MAT4X2.HPP
C:\USERS\MICHEL\DESKTOP\POLY\INF2705\TP\INF2705-TP20221-TP2\TP2_H22\SRC\PACKAGES\GLM.0.9.9.800\BUILD\NATIVE\INCLUDE\GLM\EXT\MATRIX_DOUBLE4X2.HPP
C:\USERS\MICHEL\DESKTOP\POLY\INF2705\TP\INF2705-TP20221-TP2\TP2_H22\SRC\PACKAGES\GLM.0.9.9.800\BUILD\NATIVE\INCLUDE\GLM\DETAIL\TYPE_MAT4X2.HPP
C:\USERS\MICHEL\DESKTOP\POLY\INF2705\TP\INF2705-TP20221-TP2\TP2_H22\SRC\PACKAGES\GLM.0.9.9.800\BUILD\NATIVE\INCLUDE\GLM\DETAIL\TYPE_MAT4X2.INL
C:\USERS\MICHEL\DESKTOP\POLY\INF2705\TP\INF2705-TP20221-TP2\TP2_H22\SRC\PACKAGES\GLM.0.9.9.800\BUILD\NATIVE\INCLUDE\GLM\EXT\MATRIX_DOUBLE4X2_PRECISION.HPP
C:\USERS\MICHEL\DESKTOP\POLY\INF2705\TP\INF2705-TP20221-TP2\TP2_H22\SRC\PACKAGES\GLM.0.9.9.800\BUILD\NATIVE\INCLUDE\GLM\EXT\MATRIX_FLOAT4X2.HPP
C:\USERS\MICHEL\DESKTOP\POLY\INF2705\TP\INF2705-TP20221-TP2\TP2_H22\SRC\PACKAGES\GLM.0.9.9.800\BUILD\NATIVE\INCLUDE\GLM\EXT\MATRIX_FLOAT4X2_PRECISION.HPP
C:\USERS\MICHEL\DESKTOP\POLY\INF2705\TP\INF2705-TP20221-TP2\TP2_H22\SRC\PACKAGES\GLM.0.9.9.800\BUILD\NATIVE\INCLUDE\GLM\MAT4X3.HPP
C:\USERS\MICHEL\DESKTOP\POLY\INF2705\TP\INF2705-TP20221-TP2\TP2_H22\SRC\PACKAGES\GLM.0.9.9.800\BUILD\NATIVE\INCLUDE\GLM\EXT\MATRIX_DOUBLE4X3.HPP
C:\USERS\MICHEL\DESKTOP\POLY\INF2705\TP\INF2705-TP20221-TP2\TP2_H22\SRC\PACKAGES\GLM.0.9.9.800\BUILD\NATIVE\INCLUDE\GLM\DETAIL\TYPE_MAT4X3.HPP
C:\USERS\MICHEL\DESKTOP\POLY\INF2705\TP\INF2705-TP20221-TP2\TP2_H22\SRC\PACKAGES\GLM.0.9.9.800\BUILD\NATIVE\INCLUDE\GLM\DETAIL\TYPE_MAT4X3.INL
C:\USERS\MICHEL\DESKTOP\POLY\INF2705\TP\INF2705-TP20221-TP2\TP2_H22\SRC\PACKAGES\GLM.0.9.9.800\BUILD\NATIVE\INCLUDE\GLM\EXT\MATRIX_DOUBLE4X3_PRECISION.HPP
C:\USERS\MICHEL\DESKTOP\POLY\INF2705\TP\INF2705-TP20221-TP2\TP2_H22\SRC\PACKAGES\GLM.0.9.9.800\BUILD\NATIVE\INCLUDE\GLM\EXT\MATRIX_FLOAT4X3.HPP
C:\USERS\MICHEL\DESKTOP\POLY\INF2705\TP\INF2705-TP20221-TP2\TP2_H22\SRC\PACKAGES\GLM.0.9.9.800\BUILD\NATIVE\INCLUDE\GLM\EXT\MATRIX_FLOAT4X3_PRECISION.HPP
C:\USERS\MICHEL\DESKTOP\POLY\INF2705\TP\INF2705-TP20221-TP2\TP2_H22\SRC\PACKAGES\GLM.0.9.9.800\BUILD\NATIVE\INCLUDE\GLM\MAT4X4.HPP
C:\USERS\MICHEL\DESKTOP\POLY\INF2705\TP\INF2705-TP20221-TP2\TP2_H22\SRC\PACKAGES\GLM.0.9.9.800\BUILD\NATIVE\INCLUDE\GLM\EXT\MATRIX_DOUBLE4X4.HPP
C:\USERS\MICHEL\DESKTOP\POLY\INF2705\TP\INF2705-TP20221-TP2\TP2_H22\SRC\PACKAGES\GLM.0.9.9.800\BUILD\NATIVE\INCLUDE\GLM\DETAIL\TYPE_MAT4X4.HPP
C:\USERS\MICHEL\DESKTOP\POLY\INF2705\TP\INF2705-TP20221-TP2\TP2_H22\SRC\PACKAGES\GLM.0.9.9.800\BUILD\NATIVE\INCLUDE\GLM\DETAIL\TYPE_MAT4X4.INL
C:\USERS\MICHEL\DESKTOP\POLY\INF2705\TP\INF2705-TP20221-TP2\TP2_H22\SRC\PACKAGES\GLM.0.9.9.800\BUILD\NATIVE\INCLUDE\GLM\EXT\MATRIX_DOUBLE4X4_PRECISION.HPP
C:\USERS\MICHEL\DESKTOP\POLY\INF2705\TP\INF2705-TP20221-TP2\TP2_H22\SRC\PACKAGES\GLM.0.9.9.800\BUILD\NATIVE\INCLUDE\GLM\EXT\MATRIX_FLOAT4X4.HPP
C:\USERS\MICHEL\DESKTOP\POLY\INF2705\TP\INF2705-TP20221-TP2\TP2_H22\SRC\PACKAGES\GLM.0.9.9.800\BUILD\NATIVE\INCLUDE\GLM\EXT\MATRIX_FLOAT4X4_PRECISION.HPP
C:\USERS\MICHEL\DESKTOP\POLY\INF2705\TP\INF2705-TP20221-TP2\TP2_H22\SRC\PACKAGES\GLM.0.9.9.800\BUILD\NATIVE\INCLUDE\GLM\DETAIL\FUNC_MATRIX.INL
C:\USERS\MICHEL\DESKTOP\POLY\INF2705\TP\INF2705-TP20221-TP2\TP2_H22\SRC\PACKAGES\GLM.0.9.9.800\BUILD\NATIVE\INCLUDE\GLM\GEOMETRIC.HPP
C:\USERS\MICHEL\DESKTOP\POLY\INF2705\TP\INF2705-TP20221-TP2\TP2_H22\SRC\PACKAGES\GLM.0.9.9.800\BUILD\NATIVE\INCLUDE\GLM\DETAIL\FUNC_GEOMETRIC.INL
C:\USERS\MICHEL\DESKTOP\POLY\INF2705\TP\INF2705-TP20221-TP2\TP2_H22\SRC\PACKAGES\GLM.0.9.9.800\BUILD\NATIVE\INCLUDE\GLM\EXPONENTIAL.HPP
C:\USERS\MICHEL\DESKTOP\POLY\INF2705\TP\INF2705-TP20221-TP2\TP2_H22\SRC\PACKAGES\GLM.0.9.9.800\BUILD\NATIVE\INCLUDE\GLM\DETAIL\TYPE_VEC1.HPP
C:\USERS\MICHEL\DESKTOP\POLY\INF2705\TP\INF2705-TP20221-TP2\TP2_H22\SRC\PACKAGES\GLM.0.9.9.800\BUILD\NATIVE\INCLUDE\GLM\DETAIL\TYPE_VEC1.INL
C:\USERS\MICHEL\DESKTOP\POLY\INF2705\TP\INF2705-TP20221-TP2\TP2_H22\SRC\PACKAGES\GLM.0.9.9.800\BUILD\NATIVE\INCLUDE\GLM\DETAIL\FUNC_EXPONENTIAL.INL
C:\USERS\MICHEL\DESKTOP\POLY\INF2705\TP\INF2705-TP20221-TP2\TP2_H22\SRC\PACKAGES\GLM.0.9.9.800\BUILD\NATIVE\INCLUDE\GLM\VECTOR_RELATIONAL.HPP
C:\USERS\MICHEL\DESKTOP\POLY\INF2705\TP\INF2705-TP20221-TP2\TP2_H22\SRC\PACKAGES\GLM.0.9.9.800\BUILD\NATIVE\INCLUDE\GLM\DETAIL\FUNC_VECTOR_RELATIONAL.INL
C:\USERS\MICHEL\DESKTOP\POLY\INF2705\TP\INF2705-TP20221-TP2\TP2_H22\SRC\PACKAGES\GLM.0.9.9.800\BUILD\NATIVE\INCLUDE\GLM\DETAIL\_VECTORIZE.HPP
C:\USERS\MICHEL\DESKTOP\POLY\INF2705\TP\INF2705-TP20221-TP2\TP2_H22\SRC\PACKAGES\GLM.0.9.9.800\BUILD\NATIVE\INCLUDE\GLM\COMMON.HPP
C:\USERS\MICHEL\DESKTOP\POLY\INF2705\TP\INF2705-TP20221-TP2\TP2_H22\SRC\PACKAGES\GLM.0.9.9.800\BUILD\NATIVE\INCLUDE\GLM\DETAIL\FUNC_COMMON.INL
C:\USERS\MICHEL\DESKTOP\POLY\INF2705\TP\INF2705-TP20221-TP2\TP2_H22\SRC\PACKAGES\GLM.0.9.9.800\BUILD\NATIVE\INCLUDE\GLM\DETAIL\COMPUTE_COMMON.HPP
C:\USERS\MICHEL\DESKTOP\POLY\INF2705\TP\INF2705-TP20221-TP2\TP2_H22\SRC\PACKAGES\GLM.0.9.9.800\BUILD\NATIVE\INCLUDE\GLM\EXT\MATRIX_DOUBLE2X2_PRECISION.HPP
C:\USERS\MICHEL\DESKTOP\POLY\INF2705\TP\INF2705-TP20221-TP2\TP2_H22\SRC\PACKAGES\GLM.0.9.9.800\BUILD\NATIVE\INCLUDE\GLM\EXT\MATRIX_FLOAT2X2.HPP
C:\USERS\MICHEL\DESKTOP\POLY\INF2705\TP\INF2705-TP20221-TP2\TP2_H22\SRC\PACKAGES\GLM.0.9.9.800\BUILD\NATIVE\INCLUDE\GLM\EXT\MATRIX_FLOAT2X2_PRECISION.HPP
C:\USERS\MICHEL\DESKTOP\POLY\INF2705\TP\INF2705-TP20221-TP2\TP2_H22\SRC\PACKAGES\GLM.0.9.9.800\BUILD\NATIVE\INCLUDE\GLM\TRIGONOMETRIC.HPP
C:\USERS\MICHEL\DESKTOP\POLY\INF2705\TP\INF2705-TP20221-TP2\TP2_H22\SRC\PACKAGES\GLM.0.9.9.800\BUILD\NATIVE\INCLUDE\GLM\DETAIL\FUNC_TRIGONOMETRIC.INL
C:\USERS\MICHEL\DESKTOP\POLY\INF2705\TP\INF2705-TP20221-TP2\TP2_H22\SRC\PACKAGES\GLM.0.9.9.800\BUILD\NATIVE\INCLUDE\GLM\PACKING.HPP
C:\USERS\MICHEL\DESKTOP\POLY\INF2705\TP\INF2705-TP20221-TP2\TP2_H22\SRC\PACKAGES\GLM.0.9.9.800\BUILD\NATIVE\INCLUDE\GLM\DETAIL\FUNC_PACKING.INL
C:\USERS\MICHEL\DESKTOP\POLY\INF2705\TP\INF2705-TP20221-TP2\TP2_H22\SRC\PACKAGES\GLM.0.9.9.800\BUILD\NATIVE\INCLUDE\GLM\DETAIL\TYPE_HALF.HPP
C:\USERS\MICHEL\DESKTOP\POLY\INF2705\TP\INF2705-TP20221-TP2\TP2_H22\SRC\PACKAGES\GLM.0.9.9.800\BUILD\NATIVE\INCLUDE\GLM\DETAIL\TYPE_HALF.INL
C:\USERS\MICHEL\DESKTOP\POLY\INF2705\TP\INF2705-TP20221-TP2\TP2_H22\SRC\PACKAGES\GLM.0.9.9.800\BUILD\NATIVE\INCLUDE\GLM\INTEGER.HPP
C:\USERS\MICHEL\DESKTOP\POLY\INF2705\TP\INF2705-TP20221-TP2\TP2_H22\SRC\PACKAGES\GLM.0.9.9.800\BUILD\NATIVE\INCLUDE\GLM\DETAIL\FUNC_INTEGER.INL
C:\PROGRAM FILES (X86)\MICROSOFT VISUAL STUDIO\2019\ENTERPRISE\VC\TOOLS\MSVC\14.28.29333\INCLUDE\INTRIN.H
C:\PROGRAM FILES (X86)\MICROSOFT VISUAL STUDIO\2019\ENTERPRISE\VC\TOOLS\MSVC\14.28.29333\INCLUDE\SETJMP.H
C:\PROGRAM FILES (X86)\MICROSOFT VISUAL STUDIO\2019\ENTERPRISE\VC\TOOLS\MSVC\14.28.29333\INCLUDE\IMMINTRIN.H
C:\PROGRAM FILES (X86)\MICROSOFT VISUAL STUDIO\2019\ENTERPRISE\VC\TOOLS\MSVC\14.28.29333\INCLUDE\WMMINTRIN.H
C:\PROGRAM FILES (X86)\MICROSOFT VISUAL STUDIO\2019\ENTERPRISE\VC\TOOLS\MSVC\14.28.29333\INCLUDE\NMMINTRIN.H
C:\PROGRAM FILES (X86)\MICROSOFT VISUAL STUDIO\2019\ENTERPRISE\VC\TOOLS\MSVC\14.28.29333\INCLUDE\SMMINTRIN.H
C:\PROGRAM FILES (X86)\MICROSOFT VISUAL STUDIO\2019\ENTERPRISE\VC\TOOLS\MSVC\14.28.29333\INCLUDE\TMMINTRIN.H
C:\PROGRAM FILES (X86)\MICROSOFT VISUAL STUDIO\2019\ENTERPRISE\VC\TOOLS\MSVC\14.28.29333\INCLUDE\PMMINTRIN.H
C:\PROGRAM FILES (X86)\MICROSOFT VISUAL STUDIO\2019\ENTERPRISE\VC\TOOLS\MSVC\14.28.29333\INCLUDE\EMMINTRIN.H
C:\PROGRAM FILES (X86)\MICROSOFT VISUAL STUDIO\2019\ENTERPRISE\VC\TOOLS\MSVC\14.28.29333\INCLUDE\XMMINTRIN.H
C:\PROGRAM FILES (X86)\MICROSOFT VISUAL STUDIO\2019\ENTERPRISE\VC\TOOLS\MSVC\14.28.29333\INCLUDE\MMINTRIN.H
C:\PROGRAM FILES (X86)\MICROSOFT VISUAL STUDIO\2019\ENTERPRISE\VC\TOOLS\MSVC\14.28.29333\INCLUDE\ZMMINTRIN.H
C:\PROGRAM FILES (X86)\MICROSOFT VISUAL STUDIO\2019\ENTERPRISE\VC\TOOLS\MSVC\14.28.29333\INCLUDE\AMMINTRIN.H
C:\PROGRAM FILES (X86)\MICROSOFT VISUAL STUDIO\2019\ENTERPRISE\VC\TOOLS\MSVC\14.28.29333\INCLUDE\MM3DNOW.H
C:\USERS\MICHEL\DESKTOP\POLY\INF2705\TP\INF2705-TP20221-TP2\TP2_H22\SRC\PACKAGES\GLM.0.9.9.800\BUILD\NATIVE\INCLUDE\GLM\GTC\TYPE_PTR.HPP
C:\USERS\MICHEL\DESKTOP\POLY\INF2705\TP\INF2705-TP20221-TP2\TP2_H22\SRC\PACKAGES\GLM.0.9.9.800\BUILD\NATIVE\INCLUDE\GLM\GTC\QUATERNION.HPP
C:\USERS\MICHEL\DESKTOP\POLY\INF2705\TP\INF2705-TP20221-TP2\TP2_H22\SRC\PACKAGES\GLM.0.9.9.800\BUILD\NATIVE\INCLUDE\GLM\GTC\CONSTANTS.HPP
C:\USERS\MICHEL\DESKTOP\POLY\INF2705\TP\INF2705-TP20221-TP2\TP2_H22\SRC\PACKAGES\GLM.0.9.9.800\BUILD\NATIVE\INCLUDE\GLM\EXT\SCALAR_CONSTANTS.HPP
C:\USERS\MICHEL\DESKTOP\POLY\INF2705\TP\INF2705-TP20221-TP2\TP2_H22\SRC\PACKAGES\GLM.0.9.9.800\BUILD\NATIVE\INCLUDE\GLM\EXT\SCALAR_CONSTANTS.INL
C:\USERS\MICHEL\DESKTOP\POLY\INF2705\TP\INF2705-TP20221-TP2\TP2_H22\SRC\PACKAGES\GLM.0.9.9.800\BUILD\NATIVE\INCLUDE\GLM\GTC\CONSTANTS.INL
C:\USERS\MICHEL\DESKTOP\POLY\INF2705\TP\INF2705-TP20221-TP2\TP2_H22\SRC\PACKAGES\GLM.0.9.9.800\BUILD\NATIVE\INCLUDE\GLM\GTC\MATRIX_TRANSFORM.HPP
C:\USERS\MICHEL\DESKTOP\POLY\INF2705\TP\INF2705-TP20221-TP2\TP2_H22\SRC\PACKAGES\GLM.0.9.9.800\BUILD\NATIVE\INCLUDE\GLM\EXT\MATRIX_PROJECTION.HPP
C:\USERS\MICHEL\DESKTOP\POLY\INF2705\TP\INF2705-TP20221-TP2\TP2_H22\SRC\PACKAGES\GLM.0.9.9.800\BUILD\NATIVE\INCLUDE\GLM\EXT\MATRIX_PROJECTION.INL
C:\USERS\MICHEL\DESKTOP\POLY\INF2705\TP\INF2705-TP20221-TP2\TP2_H22\SRC\PACKAGES\GLM.0.9.9.800\BUILD\NATIVE\INCLUDE\GLM\EXT\MATRIX_CLIP_SPACE.HPP
C:\USERS\MICHEL\DESKTOP\POLY\INF2705\TP\INF2705-TP20221-TP2\TP2_H22\SRC\PACKAGES\GLM.0.9.9.800\BUILD\NATIVE\INCLUDE\GLM\EXT\MATRIX_CLIP_SPACE.INL
C:\USERS\MICHEL\DESKTOP\POLY\INF2705\TP\INF2705-TP20221-TP2\TP2_H22\SRC\PACKAGES\GLM.0.9.9.800\BUILD\NATIVE\INCLUDE\GLM\EXT\MATRIX_TRANSFORM.HPP
C:\USERS\MICHEL\DESKTOP\POLY\INF2705\TP\INF2705-TP20221-TP2\TP2_H22\SRC\PACKAGES\GLM.0.9.9.800\BUILD\NATIVE\INCLUDE\GLM\EXT\MATRIX_TRANSFORM.INL
C:\USERS\MICHEL\DESKTOP\POLY\INF2705\TP\INF2705-TP20221-TP2\TP2_H22\SRC\PACKAGES\GLM.0.9.9.800\BUILD\NATIVE\INCLUDE\GLM\GTC\MATRIX_TRANSFORM.INL
C:\USERS\MICHEL\DESKTOP\POLY\INF2705\TP\INF2705-TP20221-TP2\TP2_H22\SRC\PACKAGES\GLM.0.9.9.800\BUILD\NATIVE\INCLUDE\GLM\EXT\VECTOR_RELATIONAL.HPP
C:\USERS\MICHEL\DESKTOP\POLY\INF2705\TP\INF2705-TP20221-TP2\TP2_H22\SRC\PACKAGES\GLM.0.9.9.800\BUILD\NATIVE\INCLUDE\GLM\EXT\VECTOR_RELATIONAL.INL
C:\USERS\MICHEL\DESKTOP\POLY\INF2705\TP\INF2705-TP20221-TP2\TP2_H22\SRC\PACKAGES\GLM.0.9.9.800\BUILD\NATIVE\INCLUDE\GLM\DETAIL\TYPE_FLOAT.HPP
C:\USERS\MICHEL\DESKTOP\POLY\INF2705\TP\INF2705-TP20221-TP2\TP2_H22\SRC\PACKAGES\GLM.0.9.9.800\BUILD\NATIVE\INCLUDE\GLM\EXT\QUATERNION_COMMON.HPP
C:\USERS\MICHEL\DESKTOP\POLY\INF2705\TP\INF2705-TP20221-TP2\TP2_H22\SRC\PACKAGES\GLM.0.9.9.800\BUILD\NATIVE\INCLUDE\GLM\EXT\QUATERNION_GEOMETRIC.HPP
C:\USERS\MICHEL\DESKTOP\POLY\INF2705\TP\INF2705-TP20221-TP2\TP2_H22\SRC\PACKAGES\GLM.0.9.9.800\BUILD\NATIVE\INCLUDE\GLM\EXT\QUATERNION_GEOMETRIC.INL
C:\USERS\MICHEL\DESKTOP\POLY\INF2705\TP\INF2705-TP20221-TP2\TP2_H22\SRC\PACKAGES\GLM.0.9.9.800\BUILD\NATIVE\INCLUDE\GLM\EXT\QUATERNION_COMMON.INL
C:\USERS\MICHEL\DESKTOP\POLY\INF2705\TP\INF2705-TP20221-TP2\TP2_H22\SRC\PACKAGES\GLM.0.9.9.800\BUILD\NATIVE\INCLUDE\GLM\EXT\QUATERNION_FLOAT.HPP
C:\USERS\MICHEL\DESKTOP\POLY\INF2705\TP\INF2705-TP20221-TP2\TP2_H22\SRC\PACKAGES\GLM.0.9.9.800\BUILD\NATIVE\INCLUDE\GLM\DETAIL\TYPE_QUAT.HPP
C:\USERS\MICHEL\DESKTOP\POLY\INF2705\TP\INF2705-TP20221-TP2\TP2_H22\SRC\PACKAGES\GLM.0.9.9.800\BUILD\NATIVE\INCLUDE\GLM\EXT\QUATERNION_RELATIONAL.HPP
C:\USERS\MICHEL\DESKTOP\POLY\INF2705\TP\INF2705-TP20221-TP2\TP2_H22\SRC\PACKAGES\GLM.0.9.9.800\BUILD\NATIVE\INCLUDE\GLM\EXT\QUATERNION_RELATIONAL.INL
C:\USERS\MICHEL\DESKTOP\POLY\INF2705\TP\INF2705-TP20221-TP2\TP2_H22\SRC\PACKAGES\GLM.0.9.9.800\BUILD\NATIVE\INCLUDE\GLM\DETAIL\TYPE_QUAT.INL
C:\USERS\MICHEL\DESKTOP\POLY\INF2705\TP\INF2705-TP20221-TP2\TP2_H22\SRC\PACKAGES\GLM.0.9.9.800\BUILD\NATIVE\INCLUDE\GLM\EXT\QUATERNION_FLOAT_PRECISION.HPP
C:\USERS\MICHEL\DESKTOP\POLY\INF2705\TP\INF2705-TP20221-TP2\TP2_H22\SRC\PACKAGES\GLM.0.9.9.800\BUILD\NATIVE\INCLUDE\GLM\EXT\QUATERNION_DOUBLE.HPP
C:\USERS\MICHEL\DESKTOP\POLY\INF2705\TP\INF2705-TP20221-TP2\TP2_H22\SRC\PACKAGES\GLM.0.9.9.800\BUILD\NATIVE\INCLUDE\GLM\EXT\QUATERNION_DOUBLE_PRECISION.HPP
C:\USERS\MICHEL\DESKTOP\POLY\INF2705\TP\INF2705-TP20221-TP2\TP2_H22\SRC\PACKAGES\GLM.0.9.9.800\BUILD\NATIVE\INCLUDE\GLM\EXT\QUATERNION_TRIGONOMETRIC.HPP
C:\USERS\MICHEL\DESKTOP\POLY\INF2705\TP\INF2705-TP20221-TP2\TP2_H22\SRC\PACKAGES\GLM.0.9.9.800\BUILD\NATIVE\INCLUDE\GLM\EXT\QUATERNION_TRIGONOMETRIC.INL
C:\USERS\MICHEL\DESKTOP\POLY\INF2705\TP\INF2705-TP20221-TP2\TP2_H22\SRC\PACKAGES\GLM.0.9.9.800\BUILD\NATIVE\INCLUDE\GLM\EXT\QUATERNION_TRANSFORM.HPP
C:\USERS\MICHEL\DESKTOP\POLY\INF2705\TP\INF2705-TP20221-TP2\TP2_H22\SRC\PACKAGES\GLM.0.9.9.800\BUILD\NATIVE\INCLUDE\GLM\EXT\QUATERNION_TRANSFORM.INL
C:\USERS\MICHEL\DESKTOP\POLY\INF2705\TP\INF2705-TP20221-TP2\TP2_H22\SRC\PACKAGES\GLM.0.9.9.800\BUILD\NATIVE\INCLUDE\GLM\GTC\QUATERNION.INL
C:\USERS\MICHEL\DESKTOP\POLY\INF2705\TP\INF2705-TP20221-TP2\TP2_H22\SRC\PACKAGES\GLM.0.9.9.800\BUILD\NATIVE\INCLUDE\GLM\GTC\EPSILON.HPP
C:\USERS\MICHEL\DESKTOP\POLY\INF2705\TP\INF2705-TP20221-TP2\TP2_H22\SRC\PACKAGES\GLM.0.9.9.800\BUILD\NATIVE\INCLUDE\GLM\GTC\EPSILON.INL
C:\USERS\MICHEL\DESKTOP\POLY\INF2705\TP\INF2705-TP20221-TP2\TP2_H22\SRC\PACKAGES\GLM.0.9.9.800\BUILD\NATIVE\INCLUDE\GLM\GTC\VEC1.HPP
C:\USERS\MICHEL\DESKTOP\POLY\INF2705\TP\INF2705-TP20221-TP2\TP2_H22\SRC\PACKAGES\GLM.0.9.9.800\BUILD\NATIVE\INCLUDE\GLM\EXT\VECTOR_BOOL1.HPP
C:\USERS\MICHEL\DESKTOP\POLY\INF2705\TP\INF2705-TP20221-TP2\TP2_H22\SRC\PACKAGES\GLM.0.9.9.800\BUILD\NATIVE\INCLUDE\GLM\EXT\VECTOR_BOOL1_PRECISION.HPP
C:\USERS\MICHEL\DESKTOP\POLY\INF2705\TP\INF2705-TP20221-TP2\TP2_H22\SRC\PACKAGES\GLM.0.9.9.800\BUILD\NATIVE\INCLUDE\GLM\EXT\VECTOR_FLOAT1.HPP
C:\USERS\MICHEL\DESKTOP\POLY\INF2705\TP\INF2705-TP20221-TP2\TP2_H22\SRC\PACKAGES\GLM.0.9.9.800\BUILD\NATIVE\INCLUDE\GLM\EXT\VECTOR_FLOAT1_PRECISION.HPP
C:\USERS\MICHEL\DESKTOP\POLY\INF2705\TP\INF2705-TP20221-TP2\TP2_H22\SRC\PACKAGES\GLM.0.9.9.800\BUILD\NATIVE\INCLUDE\GLM\EXT\VECTOR_DOUBLE1.HPP
C:\USERS\MICHEL\DESKTOP\POLY\INF2705\TP\INF2705-TP20221-TP2\TP2_H22\SRC\PACKAGES\GLM.0.9.9.800\BUILD\NATIVE\INCLUDE\GLM\EXT\VECTOR_DOUBLE1_PRECISION.HPP
C:\USERS\MICHEL\DESKTOP\POLY\INF2705\TP\INF2705-TP20221-TP2\TP2_H22\SRC\PACKAGES\GLM.0.9.9.800\BUILD\NATIVE\INCLUDE\GLM\EXT\VECTOR_INT1.HPP
C:\USERS\MICHEL\DESKTOP\POLY\INF2705\TP\INF2705-TP20221-TP2\TP2_H22\SRC\PACKAGES\GLM.0.9.9.800\BUILD\NATIVE\INCLUDE\GLM\EXT\VECTOR_INT1_SIZED.HPP
C:\USERS\MICHEL\DESKTOP\POLY\INF2705\TP\INF2705-TP20221-TP2\TP2_H22\SRC\PACKAGES\GLM.0.9.9.800\BUILD\NATIVE\INCLUDE\GLM\EXT\VECTOR_UINT1.HPP
C:\USERS\MICHEL\DESKTOP\POLY\INF2705\TP\INF2705-TP20221-TP2\TP2_H22\SRC\PACKAGES\GLM.0.9.9.800\BUILD\NATIVE\INCLUDE\GLM\EXT\VECTOR_UINT1_SIZED.HPP
C:\USERS\MICHEL\DESKTOP\POLY\INF2705\TP\INF2705-TP20221-TP2\TP2_H22\SRC\PACKAGES\GLM.0.9.9.800\BUILD\NATIVE\INCLUDE\GLM\GTC\TYPE_PTR.INL
C:\USERS\MICHEL\DESKTOP\POLY\INF2705\TP\INF2705-TP20221-TP2\TP2_H22\SRC\PACKAGES\GLM.0.9.9.800\BUILD\NATIVE\INCLUDE\GLM\GTX\STRING_CAST.HPP
C:\USERS\MICHEL\DESKTOP\POLY\INF2705\TP\INF2705-TP20221-TP2\TP2_H22\SRC\PACKAGES\GLM.0.9.9.800\BUILD\NATIVE\INCLUDE\GLM\GTC\TYPE_PRECISION.HPP
C:\USERS\MICHEL\DESKTOP\POLY\INF2705\TP\INF2705-TP20221-TP2\TP2_H22\SRC\PACKAGES\GLM.0.9.9.800\BUILD\NATIVE\INCLUDE\GLM\GTC\TYPE_PRECISION.INL
C:\USERS\MICHEL\DESKTOP\POLY\INF2705\TP\INF2705-TP20221-TP2\TP2_H22\SRC\PACKAGES\GLM.0.9.9.800\BUILD\NATIVE\INCLUDE\GLM\GTX\DUAL_QUATERNION.HPP
C:\USERS\MICHEL\DESKTOP\POLY\INF2705\TP\INF2705-TP20221-TP2\TP2_H22\SRC\PACKAGES\GLM.0.9.9.800\BUILD\NATIVE\INCLUDE\GLM\GTX\DUAL_QUATERNION.INL
C:\PROGRAM FILES (X86)\MICROSOFT VISUAL STUDIO\2019\ENTERPRISE\VC\TOOLS\MSVC\14.28.29333\INCLUDE\STRING
C:\PROGRAM FILES (X86)\MICROSOFT VISUAL STUDIO\2019\ENTERPRISE\VC\TOOLS\MSVC\14.28.29333\INCLUDE\CCTYPE
C:\USERS\MICHEL\DESKTOP\POLY\INF2705\TP\INF2705-TP20221-TP2\TP2_H22\SRC\PACKAGES\GLM.0.9.9.800\BUILD\NATIVE\INCLUDE\GLM\GTX\STRING_CAST.INL
C:\PROGRAM FILES (X86)\MICROSOFT VISUAL STUDIO\2019\ENTERPRISE\VC\TOOLS\MSVC\14.28.29333\INCLUDE\CSTDARG
C:\PROGRAM FILES (X86)\MICROSOFT VISUAL STUDIO\2019\ENTERPRISE\VC\TOOLS\MSVC\14.28.29333\INCLUDE\STDARG.H
C:\PROGRAM FILES (X86)\MICROSOFT VISUAL STUDIO\2019\ENTERPRISE\VC\TOOLS\MSVC\14.28.29333\INCLUDE\STACK
C:\PROGRAM FILES (X86)\MICROSOFT VISUAL STUDIO\2019\ENTERPRISE\VC\TOOLS\MSVC\14.28.29333\INCLUDE\DEQUE
C:\USERS\MICHEL\DESKTOP\POLY\INF2705\TP\INF2705-TP20221-TP2\TP2_H22\SRC\INF2705-NUANCEUR.H
C:\PROGRAM FILES (X86)\MICROSOFT VISUAL STUDIO\2019\ENTERPRISE\VC\TOOLS\MSVC\14.28.29333\INCLUDE\FSTREAM
C:\PROGRAM FILES (X86)\MICROSOFT VISUAL STUDIO\2019\ENTERPRISE\VC\TOOLS\MSVC\14.28.29333\INCLUDE\SSTREAM
C:\USERS\MICHEL\DESKTOP\POLY\INF2705\TP\INF2705-TP20221-TP2\TP2_H22\SRC\INF2705-FENETRE.H
C:\PROGRAM FILES (X86)\MICROSOFT VISUAL STUDIO\2019\ENTERPRISE\VC\TOOLS\MSVC\14.28.29333\INCLUDE\IOMANIP
C:\PROGRAM FILES (X86)\MICROSOFT VISUAL STUDIO\2019\ENTERPRISE\VC\TOOLS\MSVC\14.28.29333\INCLUDE\XLOCMON
C:\PROGRAM FILES (X86)\MICROSOFT VISUAL STUDIO\2019\ENTERPRISE\VC\TOOLS\MSVC\14.28.29333\INCLUDE\XLOCTIME
C:\PROGRAM FILES (X86)\MICROSOFT VISUAL STUDIO\2019\ENTERPRISE\VC\TOOLS\MSVC\14.28.29333\INCLUDE\CTIME
C:\PROGRAM FILES (X86)\MICROSOFT VISUAL STUDIO\2019\ENTERPRISE\VC\TOOLS\MSVC\14.28.29333\INCLUDE\CHRONO
C:\PROGRAM FILES (X86)\MICROSOFT VISUAL STUDIO\2019\ENTERPRISE\VC\TOOLS\MSVC\14.28.29333\INCLUDE\RATIO
C:\PROGRAM FILES (X86)\MICROSOFT VISUAL STUDIO\2019\ENTERPRISE\VC\TOOLS\MSVC\14.28.29333\INCLUDE\FILESYSTEM
C:\PROGRAM FILES (X86)\MICROSOFT VISUAL STUDIO\2019\ENTERPRISE\VC\TOOLS\MSVC\14.28.29333\INCLUDE\ALGORITHM
C:\PROGRAM FILES (X86)\MICROSOFT VISUAL STUDIO\2019\ENTERPRISE\VC\TOOLS\MSVC\14.28.29333\INCLUDE\LIST
C:\PROGRAM FILES (X86)\MICROSOFT VISUAL STUDIO\2019\ENTERPRISE\VC\TOOLS\MSVC\14.28.29333\INCLUDE\LOCALE
C:\PROGRAM FILES (X86)\MICROSOFT VISUAL STUDIO\2019\ENTERPRISE\VC\TOOLS\MSVC\14.28.29333\INCLUDE\XLOCBUF
C:\PROGRAM FILES (X86)\MICROSOFT VISUAL STUDIO\2019\ENTERPRISE\VC\TOOLS\MSVC\14.28.29333\INCLUDE\XLOCMES
C:\PROGRAM FILES (X86)\MICROSOFT VISUAL STUDIO\2019\ENTERPRISE\VC\TOOLS\MSVC\14.28.29333\INCLUDE\STRING_VIEW
C:\PROGRAM FILES (X86)\MICROSOFT VISUAL STUDIO\2019\ENTERPRISE\VC\TOOLS\MSVC\14.28.29333\INCLUDE\VECTOR
C:\PROGRAM FILES (X86)\MICROSOFT VISUAL STUDIO\2019\ENTERPRISE\VC\TOOLS\MSVC\14.28.29333\INCLUDE\XFILESYSTEM_ABI.H
C:\USERS\MICHEL\DESKTOP\POLY\INF2705\TP\INF2705-TP20221-TP2\TP2_H22\SRC\PACKAGES\SDL2.2.0.5\BUILD\NATIVE\INCLUDE\SDL.H
C:\USERS\MICHEL\DESKTOP\POLY\INF2705\TP\INF2705-TP20221-TP2\TP2_H22\SRC\PACKAGES\SDL2.2.0.5\BUILD\NATIVE\INCLUDE\SDL_MAIN.H
C:\USERS\MICHEL\DESKTOP\POLY\INF2705\TP\INF2705-TP20221-TP2\TP2_H22\SRC\PACKAGES\SDL2.2.0.5\BUILD\NATIVE\INCLUDE\SDL_STDINC.H
C:\USERS\MICHEL\DESKTOP\POLY\INF2705\TP\INF2705-TP20221-TP2\TP2_H22\SRC\PACKAGES\SDL2.2.0.5\BUILD\NATIVE\INCLUDE\SDL_CONFIG.H
C:\USERS\MICHEL\DESKTOP\POLY\INF2705\TP\INF2705-TP20221-TP2\TP2_H22\SRC\PACKAGES\SDL2.2.0.5\BUILD\NATIVE\INCLUDE\SDL_PLATFORM.H
C:\USERS\MICHEL\DESKTOP\POLY\INF2705\TP\INF2705-TP20221-TP2\TP2_H22\SRC\PACKAGES\SDL2.2.0.5\BUILD\NATIVE\INCLUDE\BEGIN_CODE.H
C:\USERS\MICHEL\DESKTOP\POLY\INF2705\TP\INF2705-TP20221-TP2\TP2_H22\SRC\PACKAGES\SDL2.2.0.5\BUILD\NATIVE\INCLUDE\CLOSE_CODE.H
C:\USERS\MICHEL\DESKTOP\POLY\INF2705\TP\INF2705-TP20221-TP2\TP2_H22\SRC\PACKAGES\SDL2.2.0.5\BUILD\NATIVE\INCLUDE\SDL_ASSERT.H
C:\USERS\MICHEL\DESKTOP\POLY\INF2705\TP\INF2705-TP20221-TP2\TP2_H22\SRC\PACKAGES\SDL2.2.0.5\BUILD\NATIVE\INCLUDE\SDL_ATOMIC.H
C:\USERS\MICHEL\DESKTOP\POLY\INF2705\TP\INF2705-TP20221-TP2\TP2_H22\SRC\PACKAGES\SDL2.2.0.5\BUILD\NATIVE\INCLUDE\SDL_AUDIO.H
C:\USERS\MICHEL\DESKTOP\POLY\INF2705\TP\INF2705-TP20221-TP2\TP2_H22\SRC\PACKAGES\SDL2.2.0.5\BUILD\NATIVE\INCLUDE\SDL_ERROR.H
C:\USERS\MICHEL\DESKTOP\POLY\INF2705\TP\INF2705-TP20221-TP2\TP2_H22\SRC\PACKAGES\SDL2.2.0.5\BUILD\NATIVE\INCLUDE\SDL_ENDIAN.H
C:\USERS\MICHEL\DESKTOP\POLY\INF2705\TP\INF2705-TP20221-TP2\TP2_H22\SRC\PACKAGES\SDL2.2.0.5\BUILD\NATIVE\INCLUDE\SDL_MUTEX.H
C:\USERS\MICHEL\DESKTOP\POLY\INF2705\TP\INF2705-TP20221-TP2\TP2_H22\SRC\PACKAGES\SDL2.2.0.5\BUILD\NATIVE\INCLUDE\SDL_THREAD.H
C:\PROGRAM FILES (X86)\WINDOWS KITS\10\INCLUDE\10.0.18362.0\UCRT\PROCESS.H
C:\PROGRAM FILES (X86)\WINDOWS KITS\10\INCLUDE\10.0.18362.0\UCRT\CORECRT_STARTUP.H
C:\PROGRAM FILES (X86)\MICROSOFT VISUAL STUDIO\2019\ENTERPRISE\VC\TOOLS\MSVC\14.28.29333\INCLUDE\VCRUNTIME_STARTUP.H
C:\USERS\MICHEL\DESKTOP\POLY\INF2705\TP\INF2705-TP20221-TP2\TP2_H22\SRC\PACKAGES\SDL2.2.0.5\BUILD\NATIVE\INCLUDE\SDL_RWOPS.H
C:\USERS\MICHEL\DESKTOP\POLY\INF2705\TP\INF2705-TP20221-TP2\TP2_H22\SRC\PACKAGES\SDL2.2.0.5\BUILD\NATIVE\INCLUDE\SDL_CLIPBOARD.H
C:\USERS\MICHEL\DESKTOP\POLY\INF2705\TP\INF2705-TP20221-TP2\TP2_H22\SRC\PACKAGES\SDL2.2.0.5\BUILD\NATIVE\INCLUDE\SDL_CPUINFO.H
C:\USERS\MICHEL\DESKTOP\POLY\INF2705\TP\INF2705-TP20221-TP2\TP2_H22\SRC\PACKAGES\SDL2.2.0.5\BUILD\NATIVE\INCLUDE\SDL_EVENTS.H
C:\USERS\MICHEL\DESKTOP\POLY\INF2705\TP\INF2705-TP20221-TP2\TP2_H22\SRC\PACKAGES\SDL2.2.0.5\BUILD\NATIVE\INCLUDE\SDL_VIDEO.H
C:\USERS\MICHEL\DESKTOP\POLY\INF2705\TP\INF2705-TP20221-TP2\TP2_H22\SRC\PACKAGES\SDL2.2.0.5\BUILD\NATIVE\INCLUDE\SDL_PIXELS.H
C:\USERS\MICHEL\DESKTOP\POLY\INF2705\TP\INF2705-TP20221-TP2\TP2_H22\SRC\PACKAGES\SDL2.2.0.5\BUILD\NATIVE\INCLUDE\SDL_RECT.H
C:\USERS\MICHEL\DESKTOP\POLY\INF2705\TP\INF2705-TP20221-TP2\TP2_H22\SRC\PACKAGES\SDL2.2.0.5\BUILD\NATIVE\INCLUDE\SDL_SURFACE.H
C:\USERS\MICHEL\DESKTOP\POLY\INF2705\TP\INF2705-TP20221-TP2\TP2_H22\SRC\PACKAGES\SDL2.2.0.5\BUILD\NATIVE\INCLUDE\SDL_BLENDMODE.H
C:\USERS\MICHEL\DESKTOP\POLY\INF2705\TP\INF2705-TP20221-TP2\TP2_H22\SRC\PACKAGES\SDL2.2.0.5\BUILD\NATIVE\INCLUDE\SDL_KEYBOARD.H
C:\USERS\MICHEL\DESKTOP\POLY\INF2705\TP\INF2705-TP20221-TP2\TP2_H22\SRC\PACKAGES\SDL2.2.0.5\BUILD\NATIVE\INCLUDE\SDL_KEYCODE.H
C:\USERS\MICHEL\DESKTOP\POLY\INF2705\TP\INF2705-TP20221-TP2\TP2_H22\SRC\PACKAGES\SDL2.2.0.5\BUILD\NATIVE\INCLUDE\SDL_SCANCODE.H
C:\USERS\MICHEL\DESKTOP\POLY\INF2705\TP\INF2705-TP20221-TP2\TP2_H22\SRC\PACKAGES\SDL2.2.0.5\BUILD\NATIVE\INCLUDE\SDL_MOUSE.H
C:\USERS\MICHEL\DESKTOP\POLY\INF2705\TP\INF2705-TP20221-TP2\TP2_H22\SRC\PACKAGES\SDL2.2.0.5\BUILD\NATIVE\INCLUDE\SDL_JOYSTICK.H
C:\USERS\MICHEL\DESKTOP\POLY\INF2705\TP\INF2705-TP20221-TP2\TP2_H22\SRC\PACKAGES\SDL2.2.0.5\BUILD\NATIVE\INCLUDE\SDL_GAMECONTROLLER.H
C:\USERS\MICHEL\DESKTOP\POLY\INF2705\TP\INF2705-TP20221-TP2\TP2_H22\SRC\PACKAGES\SDL2.2.0.5\BUILD\NATIVE\INCLUDE\SDL_QUIT.H
C:\USERS\MICHEL\DESKTOP\POLY\INF2705\TP\INF2705-TP20221-TP2\TP2_H22\SRC\PACKAGES\SDL2.2.0.5\BUILD\NATIVE\INCLUDE\SDL_GESTURE.H
C:\USERS\MICHEL\DESKTOP\POLY\INF2705\TP\INF2705-TP20221-TP2\TP2_H22\SRC\PACKAGES\SDL2.2.0.5\BUILD\NATIVE\INCLUDE\SDL_TOUCH.H
C:\USERS\MICHEL\DESKTOP\POLY\INF2705\TP\INF2705-TP20221-TP2\TP2_H22\SRC\PACKAGES\SDL2.2.0.5\BUILD\NATIVE\INCLUDE\SDL_FILESYSTEM.H
C:\USERS\MICHEL\DESKTOP\POLY\INF2705\TP\INF2705-TP20221-TP2\TP2_H22\SRC\PACKAGES\SDL2.2.0.5\BUILD\NATIVE\INCLUDE\SDL_HAPTIC.H
C:\USERS\MICHEL\DESKTOP\POLY\INF2705\TP\INF2705-TP20221-TP2\TP2_H22\SRC\PACKAGES\SDL2.2.0.5\BUILD\NATIVE\INCLUDE\SDL_HINTS.H
C:\USERS\MICHEL\DESKTOP\POLY\INF2705\TP\INF2705-TP20221-TP2\TP2_H22\SRC\PACKAGES\SDL2.2.0.5\BUILD\NATIVE\INCLUDE\SDL_LOADSO.H
C:\USERS\MICHEL\DESKTOP\POLY\INF2705\TP\INF2705-TP20221-TP2\TP2_H22\SRC\PACKAGES\SDL2.2.0.5\BUILD\NATIVE\INCLUDE\SDL_LOG.H
C:\USERS\MICHEL\DESKTOP\POLY\INF2705\TP\INF2705-TP20221-TP2\TP2_H22\SRC\PACKAGES\SDL2.2.0.5\BUILD\NATIVE\INCLUDE\SDL_MESSAGEBOX.H
C:\USERS\MICHEL\DESKTOP\POLY\INF2705\TP\INF2705-TP20221-TP2\TP2_H22\SRC\PACKAGES\SDL2.2.0.5\BUILD\NATIVE\INCLUDE\SDL_POWER.H
C:\USERS\MICHEL\DESKTOP\POLY\INF2705\TP\INF2705-TP20221-TP2\TP2_H22\SRC\PACKAGES\SDL2.2.0.5\BUILD\NATIVE\INCLUDE\SDL_RENDER.H
C:\USERS\MICHEL\DESKTOP\POLY\INF2705\TP\INF2705-TP20221-TP2\TP2_H22\SRC\PACKAGES\SDL2.2.0.5\BUILD\NATIVE\INCLUDE\SDL_SYSTEM.H
C:\USERS\MICHEL\DESKTOP\POLY\INF2705\TP\INF2705-TP20221-TP2\TP2_H22\SRC\PACKAGES\SDL2.2.0.5\BUILD\NATIVE\INCLUDE\SDL_TIMER.H
C:\USERS\MICHEL\DESKTOP\POLY\INF2705\TP\INF2705-TP20221-TP2\TP2_H22\SRC\PACKAGES\SDL2.2.0.5\BUILD\NATIVE\INCLUDE\SDL_VERSION.H
C:\USERS\MICHEL\DESKTOP\POLY\INF2705\TP\INF2705-TP20221-TP2\TP2_H22\SRC\PACKAGES\NATIVE.FREEIMAGE.3.17.0\BUILD\NATIVE\INCLUDE\FREEIMAGE.H
C:\USERS\MICHEL\DESKTOP\POLY\INF2705\TP\INF2705-TP20221-TP2\TP2_H22\SRC\INF2705-FORME.H
C:\USERS\MICHEL\DESKTOP\POLY\INF2705\TP\INF2705-TP20221-TP2\TP2_H22\SRC\INF2705-ISOCAEDRE.H
C:\USERS\MICHEL\DESKTOP\POLY\INF2705\TP\INF2705-TP20221-TP2\TP2_H22\SRC\PACKAGES\GLM.0.9.9.800\BUILD\NATIVE\INCLUDE\GLM\GTX\IO.HPP
C:\USERS\MICHEL\DESKTOP\POLY\INF2705\TP\INF2705-TP20221-TP2\TP2_H22\SRC\PACKAGES\GLM.0.9.9.800\BUILD\NATIVE\INCLUDE\GLM\GTX\QUATERNION.HPP
C:\USERS\MICHEL\DESKTOP\POLY\INF2705\TP\INF2705-TP20221-TP2\TP2_H22\SRC\PACKAGES\GLM.0.9.9.800\BUILD\NATIVE\INCLUDE\GLM\EXT\QUATERNION_EXPONENTIAL.HPP
C:\USERS\MICHEL\DESKTOP\POLY\INF2705\TP\INF2705-TP20221-TP2\TP2_H22\SRC\PACKAGES\GLM.0.9.9.800\BUILD\NATIVE\INCLUDE\GLM\EXT\QUATERNION_EXPONENTIAL.INL
C:\USERS\MICHEL\DESKTOP\POLY\INF2705\TP\INF2705-TP20221-TP2\TP2_H22\SRC\PACKAGES\GLM.0.9.9.800\BUILD\NATIVE\INCLUDE\GLM\GTX\NORM.HPP
C:\USERS\MICHEL\DESKTOP\POLY\INF2705\TP\INF2705-TP20221-TP2\TP2_H22\SRC\PACKAGES\GLM.0.9.9.800\BUILD\NATIVE\INCLUDE\GLM\GTX\COMPONENT_WISE.HPP
C:\USERS\MICHEL\DESKTOP\POLY\INF2705\TP\INF2705-TP20221-TP2\TP2_H22\SRC\PACKAGES\GLM.0.9.9.800\BUILD\NATIVE\INCLUDE\GLM\GTX\COMPONENT_WISE.INL
C:\USERS\MICHEL\DESKTOP\POLY\INF2705\TP\INF2705-TP20221-TP2\TP2_H22\SRC\PACKAGES\GLM.0.9.9.800\BUILD\NATIVE\INCLUDE\GLM\GTX\NORM.INL
C:\USERS\MICHEL\DESKTOP\POLY\INF2705\TP\INF2705-TP20221-TP2\TP2_H22\SRC\PACKAGES\GLM.0.9.9.800\BUILD\NATIVE\INCLUDE\GLM\GTX\QUATERNION.INL
C:\USERS\MICHEL\DESKTOP\POLY\INF2705\TP\INF2705-TP20221-TP2\TP2_H22\SRC\PACKAGES\GLM.0.9.9.800\BUILD\NATIVE\INCLUDE\GLM\GTX\IO.INL
C:\USERS\MICHEL\DESKTOP\POLY\INF2705\TP\INF2705-TP20221-TP2\TP2_H22\SRC\PACKAGES\GLM.0.9.9.800\BUILD\NATIVE\INCLUDE\GLM\GTC\MATRIX_ACCESS.HPP
C:\USERS\MICHEL\DESKTOP\POLY\INF2705\TP\INF2705-TP20221-TP2\TP2_H22\SRC\PACKAGES\GLM.0.9.9.800\BUILD\NATIVE\INCLUDE\GLM\GTC\MATRIX_ACCESS.INL
C:\USERS\MICHEL\DESKTOP\POLY\INF2705\TP\INF2705-TP20221-TP2\TP2_H22\SRC\PACKAGES\GLM.0.9.9.800\BUILD\NATIVE\INCLUDE\GLM\GTX\TYPE_TRAIT.HPP
C:\USERS\MICHEL\DESKTOP\POLY\INF2705\TP\INF2705-TP20221-TP2\TP2_H22\SRC\PACKAGES\GLM.0.9.9.800\BUILD\NATIVE\INCLUDE\GLM\GTX\TYPE_TRAIT.INL
C:\USERS\MICHEL\DESKTOP\POLY\INF2705\TP\INF2705-TP20221-TP2\TP2_H22\SRC\ETAT.H
C:\USERS\MICHEL\DESKTOP\POLY\INF2705\TP\INF2705-TP20221-TP2\TP2_H22\SRC\INF2705-SINGLETON.H
C:\USERS\MICHEL\DESKTOP\POLY\INF2705\TP\INF2705-TP20221-TP2\TP2_H22\SRC\PIPELINE.H
C:\USERS\MICHEL\DESKTOP\POLY\INF2705\TP\INF2705-TP20221-TP2\TP2_H22\SRC\CAMERA.H
C:\USERS\MICHEL\DESKTOP\POLY\INF2705\TP\INF2705-TP20221-TP2\TP2_H22\SRC\TROUDEVER.H
C:\USERS\MICHEL\DESKTOP\POLY\INF2705\TP\INF2705-TP20221-TP2\TP2_H22\SRC\EXOPLANETE.H
